contador_sintesis_RTLIL/resultados.vcd
$date
	Mon Sep 19 10:10:11 2022
$end
$version
	Icarus Verilog
$end
$timescale
	1ns
$end
$scope module tarea2testbench2 $end
$var wire 2 ! modo [1:0] $end
$var wire 1 " enb $end
$var wire 1 # clk $end
$var wire 4 $ RCO [3:0] $end
$var wire 16 % Q [15:0] $end
$var wire 16 & D [15:0] $end
$scope module B0 $end
$var wire 16 ' Q [15:0] $end
$var wire 4 ( RCO [3:0] $end
$var wire 4 ) rco1 [3:0] $end
$var wire 16 * q [15:0] $end
$var wire 1 + modo1 $end
$var wire 2 , modo [1:0] $end
$var wire 1 " enb $end
$var wire 1 # clk $end
$var wire 1 - a3 $end
$var wire 1 . a2 $end
$var wire 1 / a1 $end
$var wire 16 0 D [15:0] $end
$scope module U0 $end
$var wire 4 1 D [3:0] $end
$var wire 1 2 _13_ $end
$var wire 1 3 _14_ $end
$var wire 1 4 _15_ $end
$var wire 1 5 _16_ $end
$var wire 1 6 _17_ $end
$var wire 2 7 modo [1:0] $end
$var wire 1 " enb $end
$var wire 1 # clk $end
$var wire 32 8 _21_ [31:0] $end
$var wire 32 9 _20_ [31:0] $end
$var wire 1 : _19_ $end
$var wire 4 ; _18_ [3:0] $end
$var wire 1 < _12_ $end
$var wire 1 = _11_ $end
$var wire 1 > _10_ $end
$var wire 1 ? _09_ $end
$var wire 1 @ _08_ $end
$var wire 1 A _07_ $end
$var wire 1 B _06_ $end
$var wire 32 C _05_ [31:0] $end
$var wire 1 D _04_ $end
$var wire 1 E _03_ $end
$var wire 1 F _02_ $end
$var wire 1 G _01_ $end
$var wire 4 H _00_ [3:0] $end
$var reg 4 I Q [3:0] $end
$var reg 1 J RCO $end
$scope function _36_ $end
$var reg 4 K a [3:0] $end
$var reg 16 L b [15:0] $end
$var reg 4 M s [3:0] $end
$upscope $end
$upscope $end
$scope module U1 $end
$var wire 4 N D [3:0] $end
$var wire 1 O _14_ $end
$var wire 1 P _15_ $end
$var wire 1 Q _16_ $end
$var wire 1 R _17_ $end
$var wire 1 S _18_ $end
$var wire 1 / clk $end
$var wire 2 T modo [1:0] $end
$var wire 1 " enb $end
$var wire 32 U _21_ [31:0] $end
$var wire 1 V _20_ $end
$var wire 4 W _19_ [3:0] $end
$var wire 1 X _13_ $end
$var wire 1 Y _12_ $end
$var wire 1 Z _11_ $end
$var wire 1 [ _10_ $end
$var wire 1 \ _09_ $end
$var wire 1 ] _08_ $end
$var wire 1 ^ _07_ $end
$var wire 1 _ _06_ $end
$var wire 32 ` _05_ [31:0] $end
$var wire 1 a _04_ $end
$var wire 1 b _03_ $end
$var wire 1 c _02_ $end
$var wire 1 d _01_ $end
$var wire 4 e _00_ [3:0] $end
$var reg 4 f Q [3:0] $end
$var reg 1 g RCO $end
$scope function _39_ $end
$var reg 4 h a [3:0] $end
$var reg 12 i b [11:0] $end
$var reg 3 j s [2:0] $end
$upscope $end
$upscope $end
$scope module U2 $end
$var wire 4 k D [3:0] $end
$var wire 1 l _14_ $end
$var wire 1 m _15_ $end
$var wire 1 n _16_ $end
$var wire 1 o _17_ $end
$var wire 1 p _18_ $end
$var wire 1 . clk $end
$var wire 2 q modo [1:0] $end
$var wire 1 " enb $end
$var wire 32 r _21_ [31:0] $end
$var wire 1 s _20_ $end
$var wire 4 t _19_ [3:0] $end
$var wire 1 u _13_ $end
$var wire 1 v _12_ $end
$var wire 1 w _11_ $end
$var wire 1 x _10_ $end
$var wire 1 y _09_ $end
$var wire 1 z _08_ $end
$var wire 1 { _07_ $end
$var wire 1 | _06_ $end
$var wire 32 } _05_ [31:0] $end
$var wire 1 ~ _04_ $end
$var wire 1 !" _03_ $end
$var wire 1 "" _02_ $end
$var wire 1 #" _01_ $end
$var wire 4 $" _00_ [3:0] $end
$var reg 4 %" Q [3:0] $end
$var reg 1 &" RCO $end
$scope function _39_ $end
$var reg 4 '" a [3:0] $end
$var reg 12 (" b [11:0] $end
$var reg 3 )" s [2:0] $end
$upscope $end
$upscope $end
$scope module U3 $end
$var wire 4 *" D [3:0] $end
$var wire 1 +" _14_ $end
$var wire 1 ," _15_ $end
$var wire 1 -" _16_ $end
$var wire 1 ." _17_ $end
$var wire 1 /" _18_ $end
$var wire 1 - clk $end
$var wire 2 0" modo [1:0] $end
$var wire 1 " enb $end
$var wire 32 1" _21_ [31:0] $end
$var wire 1 2" _20_ $end
$var wire 4 3" _19_ [3:0] $end
$var wire 1 4" _13_ $end
$var wire 1 5" _12_ $end
$var wire 1 6" _11_ $end
$var wire 1 7" _10_ $end
$var wire 1 8" _09_ $end
$var wire 1 9" _08_ $end
$var wire 1 :" _07_ $end
$var wire 1 ;" _06_ $end
$var wire 32 <" _05_ [31:0] $end
$var wire 1 =" _04_ $end
$var wire 1 >" _03_ $end
$var wire 1 ?" _02_ $end
$var wire 1 @" _01_ $end
$var wire 4 A" _00_ [3:0] $end
$var reg 4 B" Q [3:0] $end
$var reg 1 C" RCO $end
$scope function _39_ $end
$var reg 4 D" a [3:0] $end
$var reg 12 E" b [11:0] $end
$var reg 3 F" s [2:0] $end
$upscope $end
$upscope $end
$upscope $end
$scope module senales $end
$var wire 16 G" Q [15:0] $end
$var wire 4 H" RCO [3:0] $end
$var reg 16 I" D [15:0] $end
$var reg 1 # clk $end
$var reg 1 " enb $end
$var reg 2 J" modo [1:0] $end
$upscope $end
$upscope $end
$enddefinitions $end
#0
$dumpvars
bx J"
b0 I"
b0x H"
bx G"
bx F"
bx0000 E"
bx D"
0C"
bx B"
bx A"
0@"
x?"
x>"
x="
bx <"
x;"
x:"
x9"
x8"
x7"
x6"
x5"
x4"
bx 3"
x2"
bx 1"
bx 0"
x/"
x."
x-"
x,"
x+"
b0 *"
bx )"
bx0000 ("
bx '"
0&"
bx %"
bx $"
0#"
x""
x!"
x~
bx }
x|
x{
xz
xy
xx
xw
xv
xu
bx t
xs
bx r
bx q
xp
xo
xn
xm
xl
b0 k
bx j
bx0000 i
bx h
0g
bx f
bx e
0d
xc
xb
xa
bx `
x_
x^
x]
x\
x[
xZ
xY
xX
bx W
xV
bx U
bx T
xS
xR
xQ
xP
xO
b0 N
bx M
bx0000 L
bx K
xJ
bx I
bx H
xG
xF
xE
xD
bx C
xB
xA
x@
x?
x>
x=
x<
bx ;
x:
bx 9
bx 8
bx 7
x6
x5
x4
x3
x2
b0 1
b0 0
x/
0.
0-
bx ,
x+
bx *
b0x )
b0x (
bx '
b0 &
bx %
b0x $
0#
0"
bx !
$end
#5
x-
x.
1#
#10
0-
0.
0#
#15
xC"
bx0x $
bx0x (
bx0x H"
bx0x )
x&"
x-
x.
x@"
x#"
xd
1#
1"
#20
0.
0#
#25
x.
1#
#30
0@"
0#"
0d
0G
0?"
0>"
0="
b0 A"
0""
0!"
0~
b0 $"
0c
0b
0a
b0 e
0F
0E
0D
b0 H
0+"
0,"
0-"
b0 3"
b1 F"
0l
0m
0n
b0 t
b1 )"
0O
0P
0Q
b0 W
b1 j
02
03
04
b0 ;
b1 M
0/
0.
0-
0#
09"
0;"
07"
04"
12"
0z
0|
0x
0u
1s
0]
0_
0[
0X
1V
0A
0?
0<
1:
1+
b11 !
b11 ,
b11 7
b11 T
b11 q
b11 0"
b11 J"
#35
1/"
b111110000 E"
1p
b111110000 ("
1S
b111110000 i
16
b1111111010000 L
1."
1o
1R
15
b1 <"
0:"
18"
06"
05"
b11111111111111111111111111111111 1"
b0 B"
0C"
0&"
b1 }
0{
1y
0w
0v
b11111111111111111111111111111111 r
b0 %"
b1 `
0^
1\
0Z
0Y
b11111111111111111111111111111111 U
b0 f
b0 $
b0 (
b0 H"
b0 )
0J
b1 C
0B
1@
0>
0=
b11111111111111111111111111111111 9
b11111111111111111111111111111101 8
b0 %
b0 '
b0 G"
b0 *
b0 I
1-
1.
1/
1#
#40
b1 A"
b1 $"
b1 e
b1 H
b1 3"
b100 F"
b1 t
b100 )"
b1 W
b100 j
b1 ;
b1000 M
0/
0.
0-
0#
19"
02"
1z
0s
1]
0V
1A
0:
0+
b0 !
b0 ,
b0 7
b0 T
b0 q
b0 0"
b0 J"
#45
b10 H
b10 ;
b10000011100000 L
b10 C
0@
1>
b0 9
b11111111111111111111111111111110 8
b1 %
b1 '
b1 G"
b1 *
b1 I
1#
#50
0#
#55
b11 H
b11 ;
b11000111110000 L
05
b11 C
0>
1=
b1 9
b11111111111111111111111111111111 8
b10 %
b10 '
b10 G"
b10 *
b10 I
1#
#60
0#
#65
b100 H
b100 ;
b100001000000000 L
06
b100 C
0=
b10 9
b0 8
b11 %
b11 '
b11 G"
b11 *
b11 I
1#
#70
0#
#75
b101 H
b101 ;
b101001100010000 L
b101 C
b11 9
b1 8
b100 %
b100 '
b100 G"
b100 *
b100 I
1#
#80
0#
#85
b110 H
b110 ;
b110010000100000 L
b110 C
b100 9
b10 8
b101 %
b101 '
b101 G"
b101 *
b101 I
1#
#90
0#
#95
b111 H
b111 ;
b111010100110000 L
b111 C
b101 9
b11 8
b110 %
b110 '
b110 G"
b110 *
b110 I
1#
#100
0#
#105
b1000 H
b1000 ;
b1000011001000000 L
b1000 C
b110 9
b100 8
b111 %
b111 '
b111 G"
b111 *
b111 I
1#
#110
0#
#115
b1001 H
b1001 ;
b1001011101010000 L
b1001 C
b111 9
b101 8
b1000 %
b1000 '
b1000 G"
b1000 *
b1000 I
1#
#120
0#
#125
b1010 H
b1010 ;
b1010100001100000 L
b1010 C
b1000 9
b110 8
b1001 %
b1001 '
b1001 G"
b1001 *
b1001 I
1#
#130
0#
#135
b1011 H
b1011 ;
b1011100101110000 L
b1011 C
b1001 9
b111 8
b1010 %
b1010 '
b1010 G"
b1010 *
b1010 I
1#
#140
0#
#145
b1100 H
b1100 ;
b1100101010000000 L
b1100 C
b1010 9
b1000 8
b1011 %
b1011 '
b1011 G"
b1011 *
b1011 I
1#
#150
0#
#155
b1101 H
b1101 ;
b1101101110010000 L
b1101 C
b1011 9
b1001 8
b1100 %
b1100 '
b1100 G"
b1100 *
b1100 I
1#
#160
0#
#165
b1110 H
b1110 ;
b1110110010100000 L
b1110 C
b1100 9
b1010 8
b1101 %
b1101 '
b1101 G"
b1101 *
b1101 I
1#
#170
0#
#175
b1111 H
b1111 ;
b1111110110110000 L
b1111 C
b1101 9
b1011 8
b1110 %
b1110 '
b1110 G"
b1110 *
b1110 I
1#
#180
0#
#185
1G
b0 H
1F
b0 ;
b111011000000 L
12
b10000 C
1B
b1110 9
b1100 8
b1111 %
b1111 '
b1111 G"
b1111 *
b1111 I
1#
#190
0#
#195
b10 e
b10 W
b1000000000 i
b10 `
0\
1Z
b0 U
b1 f
0G
b1 H
1/
0F
16
b1 ;
b1111111010000 L
02
15
b1 $
b1 (
b1 H"
b1 )
1J
b1 C
0B
1@
b11111111111111111111111111111111 9
b11111111111111111111111111111101 8
b10000 %
b10000 '
b10000 G"
b10000 *
b0 I
1#
#200
0#
#205
b10 H
b10 ;
b10000011100000 L
0/
b10 C
0@
1>
b0 9
b11111111111111111111111111111110 8
b10001 %
b10001 '
b10001 G"
b10001 *
b1 I
b0 $
b0 (
b0 H"
b0 )
0J
1#
#210
0#
#215
b11 H
b11 ;
b11000111110000 L
05
b11 C
0>
1=
b1 9
b11111111111111111111111111111111 8
b10010 %
b10010 '
b10010 G"
b10010 *
b10 I
1#
#220
0#
#225
b100 H
b100 ;
b100001000000000 L
06
b100 C
0=
b10 9
b0 8
b10011 %
b10011 '
b10011 G"
b10011 *
b11 I
1#
#230
0#
#235
b101 H
b101 ;
b101001100010000 L
b101 C
b11 9
b1 8
b10100 %
b10100 '
b10100 G"
b10100 *
b100 I
1#
#240
0#
#245
b110 H
b110 ;
b110010000100000 L
b110 C
b100 9
b10 8
b10101 %
b10101 '
b10101 G"
b10101 *
b101 I
1#
#250
0#
#255
b111 H
b111 ;
b111010100110000 L
b111 C
b101 9
b11 8
b10110 %
b10110 '
b10110 G"
b10110 *
b110 I
1#
#260
0#
#265
b1000 H
b1000 ;
b1000011001000000 L
b1000 C
b110 9
b100 8
b10111 %
b10111 '
b10111 G"
b10111 *
b111 I
1#
#270
0#
#275
b1001 H
b1001 ;
b1001011101010000 L
b1001 C
b111 9
b101 8
b11000 %
b11000 '
b11000 G"
b11000 *
b1000 I
1#
#280
0#
#285
b1010 H
b1010 ;
b1010100001100000 L
b1010 C
b1000 9
b110 8
b11001 %
b11001 '
b11001 G"
b11001 *
b1001 I
1#
#290
0#
#295
b1011 H
b1011 ;
b1011100101110000 L
b1011 C
b1001 9
b111 8
b11010 %
b11010 '
b11010 G"
b11010 *
b1010 I
1#
#300
0#
#305
b1100 H
b1100 ;
b1100101010000000 L
b1100 C
b1010 9
b1000 8
b11011 %
b11011 '
b11011 G"
b11011 *
b1011 I
1#
#310
0#
#315
b1101 H
b1101 ;
b1101101110010000 L
b1101 C
b1011 9
b1001 8
b11100 %
b11100 '
b11100 G"
b11100 *
b1100 I
1#
#320
0#
#325
b1110 H
b1110 ;
b1110110010100000 L
b1110 C
b1100 9
b1010 8
b11101 %
b11101 '
b11101 G"
b11101 *
b1101 I
1#
#330
0#
#335
b1111 H
b1111 ;
b1111110110110000 L
b1111 C
b1101 9
b1011 8
b11110 %
b11110 '
b11110 G"
b11110 *
b1110 I
1#
#340
0#
#345
1G
b0 H
1F
b0 ;
b111011000000 L
12
b10000 C
1B
b1110 9
b1100 8
b11111 %
b11111 '
b11111 G"
b11111 *
b1111 I
1#
#350
0#
#355
b11 e
b11 W
b1100010000 i
0R
b11 `
0Z
1Y
b1 U
b10 f
0G
b1 H
1/
0F
16
b1 ;
b1111111010000 L
02
15
b1 $
b1 (
b1 H"
b1 )
1J
b1 C
0B
1@
b11111111111111111111111111111111 9
b11111111111111111111111111111101 8
b100000 %
b100000 '
b100000 G"
b100000 *
b0 I
1#
#360
0#
#365
b10 H
b10 ;
b10000011100000 L
0/
b10 C
0@
1>
b0 9
b11111111111111111111111111111110 8
b100001 %
b100001 '
b100001 G"
b100001 *
b1 I
b0 $
b0 (
b0 H"
b0 )
0J
1#
#370
0#
#375
b11 H
b11 ;
b11000111110000 L
05
b11 C
0>
1=
b1 9
b11111111111111111111111111111111 8
b100010 %
b100010 '
b100010 G"
b100010 *
b10 I
1#
#380
0#
#385
b100 H
b100 ;
b100001000000000 L
06
b100 C
0=
b10 9
b0 8
b100011 %
b100011 '
b100011 G"
b100011 *
b11 I
1#
#390
0#
#395
b101 H
b101 ;
b101001100010000 L
b101 C
b11 9
b1 8
b100100 %
b100100 '
b100100 G"
b100100 *
b100 I
1#
#400
0#
#405
b110 H
b110 ;
b110010000100000 L
b110 C
b100 9
b10 8
b100101 %
b100101 '
b100101 G"
b100101 *
b101 I
1#
#410
0#
#415
b111 H
b111 ;
b111010100110000 L
b111 C
b101 9
b11 8
b100110 %
b100110 '
b100110 G"
b100110 *
b110 I
1#
#420
0#
#425
b1000 H
b1000 ;
b1000011001000000 L
b1000 C
b110 9
b100 8
b100111 %
b100111 '
b100111 G"
b100111 *
b111 I
1#
#430
0#
#435
b1001 H
b1001 ;
b1001011101010000 L
b1001 C
b111 9
b101 8
b101000 %
b101000 '
b101000 G"
b101000 *
b1000 I
1#
#440
0#
#445
b1010 H
b1010 ;
b1010100001100000 L
b1010 C
b1000 9
b110 8
b101001 %
b101001 '
b101001 G"
b101001 *
b1001 I
1#
#450
0#
#455
b1011 H
b1011 ;
b1011100101110000 L
b1011 C
b1001 9
b111 8
b101010 %
b101010 '
b101010 G"
b101010 *
b1010 I
1#
#460
0#
#465
b1100 H
b1100 ;
b1100101010000000 L
b1100 C
b1010 9
b1000 8
b101011 %
b101011 '
b101011 G"
b101011 *
b1011 I
1#
#470
0#
#475
b1101 H
b1101 ;
b1101101110010000 L
b1101 C
b1011 9
b1001 8
b101100 %
b101100 '
b101100 G"
b101100 *
b1100 I
1#
#480
0#
#485
b1110 H
b1110 ;
b1110110010100000 L
b1110 C
b1100 9
b1010 8
b101101 %
b101101 '
b101101 G"
b101101 *
b1101 I
1#
#490
0#
#495
b1111 H
b1111 ;
b1111110110110000 L
b1111 C
b1101 9
b1011 8
b101110 %
b101110 '
b101110 G"
b101110 *
b1110 I
1#
#500
0#
#505
1G
b0 H
1F
b0 ;
b111011000000 L
12
b10000 C
1B
b1110 9
b1100 8
b101111 %
b101111 '
b101111 G"
b101111 *
b1111 I
1#
#510
0#
#515
b100 e
b100 W
b10000100000 i
0S
b100 `
0Y
b10 U
b11 f
0G
b1 H
1/
0F
16
b1 ;
b1111111010000 L
02
15
b1 $
b1 (
b1 H"
b1 )
1J
b1 C
0B
1@
b11111111111111111111111111111111 9
b11111111111111111111111111111101 8
b110000 %
b110000 '
b110000 G"
b110000 *
b0 I
1#
#520
0#
#525
b10 H
b10 ;
b10000011100000 L
0/
b10 C
0@
1>
b0 9
b11111111111111111111111111111110 8
b110001 %
b110001 '
b110001 G"
b110001 *
b1 I
b0 $
b0 (
b0 H"
b0 )
0J
1#
#530
0#
#535
b11 H
b11 ;
b11000111110000 L
05
b11 C
0>
1=
b1 9
b11111111111111111111111111111111 8
b110010 %
b110010 '
b110010 G"
b110010 *
b10 I
1#
#540
0#
#545
b100 H
b100 ;
b100001000000000 L
06
b100 C
0=
b10 9
b0 8
b110011 %
b110011 '
b110011 G"
b110011 *
b11 I
1#
#550
0#
#555
b101 H
b101 ;
b101001100010000 L
b101 C
b11 9
b1 8
b110100 %
b110100 '
b110100 G"
b110100 *
b100 I
1#
#560
0#
#565
b110 H
b110 ;
b110010000100000 L
b110 C
b100 9
b10 8
b110101 %
b110101 '
b110101 G"
b110101 *
b101 I
1#
#570
0#
#575
b111 H
b111 ;
b111010100110000 L
b111 C
b101 9
b11 8
b110110 %
b110110 '
b110110 G"
b110110 *
b110 I
1#
#580
0#
#585
b1000 H
b1000 ;
b1000011001000000 L
b1000 C
b110 9
b100 8
b110111 %
b110111 '
b110111 G"
b110111 *
b111 I
1#
#590
0#
#595
b1001 H
b1001 ;
b1001011101010000 L
b1001 C
b111 9
b101 8
b111000 %
b111000 '
b111000 G"
b111000 *
b1000 I
1#
#600
0#
#605
b1010 H
b1010 ;
b1010100001100000 L
b1010 C
b1000 9
b110 8
b111001 %
b111001 '
b111001 G"
b111001 *
b1001 I
1#
#610
0#
#615
b1011 H
b1011 ;
b1011100101110000 L
b1011 C
b1001 9
b111 8
b111010 %
b111010 '
b111010 G"
b111010 *
b1010 I
1#
#620
0#
#625
b1100 H
b1100 ;
b1100101010000000 L
b1100 C
b1010 9
b1000 8
b111011 %
b111011 '
b111011 G"
b111011 *
b1011 I
1#
#630
0#
#635
b1101 H
b1101 ;
b1101101110010000 L
b1101 C
b1011 9
b1001 8
b111100 %
b111100 '
b111100 G"
b111100 *
b1100 I
1#
#640
0#
#645
b1110 H
b1110 ;
b1110110010100000 L
b1110 C
b1100 9
b1010 8
b111101 %
b111101 '
b111101 G"
b111101 *
b1101 I
1#
#650
0#
#655
b1111 H
b1111 ;
b1111110110110000 L
b1111 C
b1101 9
b1011 8
b111110 %
b111110 '
b111110 G"
b111110 *
b1110 I
1#
#660
0#
#665
1G
b0 H
1F
b0 ;
b111011000000 L
12
b10000 C
1B
b1110 9
b1100 8
b111111 %
b111111 '
b111111 G"
b111111 *
b1111 I
1#
#670
0#
#675
b101 e
b101 W
b10100110000 i
b101 `
b11 U
b100 f
0G
b1 H
1/
0F
16
b1 ;
b1111111010000 L
02
15
b1 $
b1 (
b1 H"
b1 )
1J
b1 C
0B
1@
b11111111111111111111111111111111 9
b11111111111111111111111111111101 8
b1000000 %
b1000000 '
b1000000 G"
b1000000 *
b0 I
1#
#680
0#
#685
b10 H
b10 ;
b10000011100000 L
0/
b10 C
0@
1>
b0 9
b11111111111111111111111111111110 8
b1000001 %
b1000001 '
b1000001 G"
b1000001 *
b1 I
b0 $
b0 (
b0 H"
b0 )
0J
1#
#690
0#
#695
b11 H
b11 ;
b11000111110000 L
05
b11 C
0>
1=
b1 9
b11111111111111111111111111111111 8
b1000010 %
b1000010 '
b1000010 G"
b1000010 *
b10 I
1#
#700
0#
#705
b100 H
b100 ;
b100001000000000 L
06
b100 C
0=
b10 9
b0 8
b1000011 %
b1000011 '
b1000011 G"
b1000011 *
b11 I
1#
#710
0#
#715
b101 H
b101 ;
b101001100010000 L
b101 C
b11 9
b1 8
b1000100 %
b1000100 '
b1000100 G"
b1000100 *
b100 I
1#
#720
0#
#725
b110 H
b110 ;
b110010000100000 L
b110 C
b100 9
b10 8
b1000101 %
b1000101 '
b1000101 G"
b1000101 *
b101 I
1#
#730
0#
#735
b111 H
b111 ;
b111010100110000 L
b111 C
b101 9
b11 8
b1000110 %
b1000110 '
b1000110 G"
b1000110 *
b110 I
1#
#740
0#
#745
b1000 H
b1000 ;
b1000011001000000 L
b1000 C
b110 9
b100 8
b1000111 %
b1000111 '
b1000111 G"
b1000111 *
b111 I
1#
#750
0#
#755
b1001 H
b1001 ;
b1001011101010000 L
b1001 C
b111 9
b101 8
b1001000 %
b1001000 '
b1001000 G"
b1001000 *
b1000 I
1#
#760
0#
#765
b1010 H
b1010 ;
b1010100001100000 L
b1010 C
b1000 9
b110 8
b1001001 %
b1001001 '
b1001001 G"
b1001001 *
b1001 I
1#
#770
0#
#775
b1011 H
b1011 ;
b1011100101110000 L
b1011 C
b1001 9
b111 8
b1001010 %
b1001010 '
b1001010 G"
b1001010 *
b1010 I
1#
#780
0#
#785
b1100 H
b1100 ;
b1100101010000000 L
b1100 C
b1010 9
b1000 8
b1001011 %
b1001011 '
b1001011 G"
b1001011 *
b1011 I
1#
#790
0#
#795
b1101 H
b1101 ;
b1101101110010000 L
b1101 C
b1011 9
b1001 8
b1001100 %
b1001100 '
b1001100 G"
b1001100 *
b1100 I
1#
#800
0#
#805
b1110 H
b1110 ;
b1110110010100000 L
b1110 C
b1100 9
b1010 8
b1001101 %
b1001101 '
b1001101 G"
b1001101 *
b1101 I
1#
#810
0#
#815
b1111 H
b1111 ;
b1111110110110000 L
b1111 C
b1101 9
b1011 8
b1001110 %
b1001110 '
b1001110 G"
b1001110 *
b1110 I
1#
#820
0#
#825
1G
b0 H
1F
b0 ;
b111011000000 L
12
b10000 C
1B
b1110 9
b1100 8
b1001111 %
b1001111 '
b1001111 G"
b1001111 *
b1111 I
1#
#830
0#
#835
b110 e
b110 W
b11001000000 i
b110 `
b100 U
b101 f
0G
b1 H
1/
0F
16
b1 ;
b1111111010000 L
02
15
b1 $
b1 (
b1 H"
b1 )
1J
b1 C
0B
1@
b11111111111111111111111111111111 9
b11111111111111111111111111111101 8
b1010000 %
b1010000 '
b1010000 G"
b1010000 *
b0 I
1#
#840
0#
#845
b10 H
b10 ;
b10000011100000 L
0/
b10 C
0@
1>
b0 9
b11111111111111111111111111111110 8
b1010001 %
b1010001 '
b1010001 G"
b1010001 *
b1 I
b0 $
b0 (
b0 H"
b0 )
0J
1#
#850
0#
#855
b11 H
b11 ;
b11000111110000 L
05
b11 C
0>
1=
b1 9
b11111111111111111111111111111111 8
b1010010 %
b1010010 '
b1010010 G"
b1010010 *
b10 I
1#
#860
0#
#865
b100 H
b100 ;
b100001000000000 L
06
b100 C
0=
b10 9
b0 8
b1010011 %
b1010011 '
b1010011 G"
b1010011 *
b11 I
1#
#870
0#
#875
b101 H
b101 ;
b101001100010000 L
b101 C
b11 9
b1 8
b1010100 %
b1010100 '
b1010100 G"
b1010100 *
b100 I
1#
#880
0#
#885
b110 H
b110 ;
b110010000100000 L
b110 C
b100 9
b10 8
b1010101 %
b1010101 '
b1010101 G"
b1010101 *
b101 I
1#
#890
0#
#895
b111 H
b111 ;
b111010100110000 L
b111 C
b101 9
b11 8
b1010110 %
b1010110 '
b1010110 G"
b1010110 *
b110 I
1#
#900
0#
#905
b1000 H
b1000 ;
b1000011001000000 L
b1000 C
b110 9
b100 8
b1010111 %
b1010111 '
b1010111 G"
b1010111 *
b111 I
1#
#910
0#
#915
b1001 H
b1001 ;
b1001011101010000 L
b1001 C
b111 9
b101 8
b1011000 %
b1011000 '
b1011000 G"
b1011000 *
b1000 I
1#
#920
0#
#925
b1010 H
b1010 ;
b1010100001100000 L
b1010 C
b1000 9
b110 8
b1011001 %
b1011001 '
b1011001 G"
b1011001 *
b1001 I
1#
#930
0#
#935
b1011 H
b1011 ;
b1011100101110000 L
b1011 C
b1001 9
b111 8
b1011010 %
b1011010 '
b1011010 G"
b1011010 *
b1010 I
1#
#940
0#
#945
b1100 H
b1100 ;
b1100101010000000 L
b1100 C
b1010 9
b1000 8
b1011011 %
b1011011 '
b1011011 G"
b1011011 *
b1011 I
1#
#950
0#
#955
b1101 H
b1101 ;
b1101101110010000 L
b1101 C
b1011 9
b1001 8
b1011100 %
b1011100 '
b1011100 G"
b1011100 *
b1100 I
1#
#960
0#
#965
b1110 H
b1110 ;
b1110110010100000 L
b1110 C
b1100 9
b1010 8
b1011101 %
b1011101 '
b1011101 G"
b1011101 *
b1101 I
1#
#970
0#
#975
b1111 H
b1111 ;
b1111110110110000 L
b1111 C
b1101 9
b1011 8
b1011110 %
b1011110 '
b1011110 G"
b1011110 *
b1110 I
1#
#980
0#
#985
1G
b0 H
1F
b0 ;
b111011000000 L
12
b10000 C
1B
b1110 9
b1100 8
b1011111 %
b1011111 '
b1011111 G"
b1011111 *
b1111 I
1#
#990
0#
#995
b111 e
b111 W
b11101010000 i
b111 `
b101 U
b110 f
0G
b1 H
1/
0F
16
b1 ;
b1111111010000 L
02
15
b1 $
b1 (
b1 H"
b1 )
1J
b1 C
0B
1@
b11111111111111111111111111111111 9
b11111111111111111111111111111101 8
b1100000 %
b1100000 '
b1100000 G"
b1100000 *
b0 I
1#
#1000
0#
#1005
b10 H
b10 ;
b10000011100000 L
0/
b10 C
0@
1>
b0 9
b11111111111111111111111111111110 8
b1100001 %
b1100001 '
b1100001 G"
b1100001 *
b1 I
b0 $
b0 (
b0 H"
b0 )
0J
1#
#1010
0#
#1015
b11 H
b11 ;
b11000111110000 L
05
b11 C
0>
1=
b1 9
b11111111111111111111111111111111 8
b1100010 %
b1100010 '
b1100010 G"
b1100010 *
b10 I
1#
#1020
0#
#1025
b100 H
b100 ;
b100001000000000 L
06
b100 C
0=
b10 9
b0 8
b1100011 %
b1100011 '
b1100011 G"
b1100011 *
b11 I
1#
#1030
0#
#1035
b101 H
b101 ;
b101001100010000 L
b101 C
b11 9
b1 8
b1100100 %
b1100100 '
b1100100 G"
b1100100 *
b100 I
1#
#1040
0#
#1045
b110 H
b110 ;
b110010000100000 L
b110 C
b100 9
b10 8
b1100101 %
b1100101 '
b1100101 G"
b1100101 *
b101 I
1#
#1050
0#
#1055
b111 H
b111 ;
b111010100110000 L
b111 C
b101 9
b11 8
b1100110 %
b1100110 '
b1100110 G"
b1100110 *
b110 I
1#
#1060
0#
#1065
b1000 H
b1000 ;
b1000011001000000 L
b1000 C
b110 9
b100 8
b1100111 %
b1100111 '
b1100111 G"
b1100111 *
b111 I
1#
#1070
0#
#1075
b1001 H
b1001 ;
b1001011101010000 L
b1001 C
b111 9
b101 8
b1101000 %
b1101000 '
b1101000 G"
b1101000 *
b1000 I
1#
#1080
0#
#1085
b1010 H
b1010 ;
b1010100001100000 L
b1010 C
b1000 9
b110 8
b1101001 %
b1101001 '
b1101001 G"
b1101001 *
b1001 I
1#
#1090
0#
#1095
b1011 H
b1011 ;
b1011100101110000 L
b1011 C
b1001 9
b111 8
b1101010 %
b1101010 '
b1101010 G"
b1101010 *
b1010 I
1#
#1100
0#
#1105
b1100 H
b1100 ;
b1100101010000000 L
b1100 C
b1010 9
b1000 8
b1101011 %
b1101011 '
b1101011 G"
b1101011 *
b1011 I
1#
#1110
0#
#1115
b1101 H
b1101 ;
b1101101110010000 L
b1101 C
b1011 9
b1001 8
b1101100 %
b1101100 '
b1101100 G"
b1101100 *
b1100 I
1#
#1120
0#
#1125
b1110 H
b1110 ;
b1110110010100000 L
b1110 C
b1100 9
b1010 8
b1101101 %
b1101101 '
b1101101 G"
b1101101 *
b1101 I
1#
#1130
0#
#1135
b1111 H
b1111 ;
b1111110110110000 L
b1111 C
b1101 9
b1011 8
b1101110 %
b1101110 '
b1101110 G"
b1101110 *
b1110 I
1#
#1140
0#
#1145
1G
b0 H
1F
b0 ;
b111011000000 L
12
b10000 C
1B
b1110 9
b1100 8
b1101111 %
b1101111 '
b1101111 G"
b1101111 *
b1111 I
1#
#1150
0#
#1155
b1000 e
b1000 W
b100001100000 i
b1000 `
b110 U
b111 f
0G
b1 H
1/
0F
16
b1 ;
b1111111010000 L
02
15
b1 $
b1 (
b1 H"
b1 )
1J
b1 C
0B
1@
b11111111111111111111111111111111 9
b11111111111111111111111111111101 8
b1110000 %
b1110000 '
b1110000 G"
b1110000 *
b0 I
1#
#1160
0#
#1165
b10 H
b10 ;
b10000011100000 L
0/
b10 C
0@
1>
b0 9
b11111111111111111111111111111110 8
b1110001 %
b1110001 '
b1110001 G"
b1110001 *
b1 I
b0 $
b0 (
b0 H"
b0 )
0J
1#
#1170
0#
#1175
b11 H
b11 ;
b11000111110000 L
05
b11 C
0>
1=
b1 9
b11111111111111111111111111111111 8
b1110010 %
b1110010 '
b1110010 G"
b1110010 *
b10 I
1#
#1180
0#
#1185
b100 H
b100 ;
b100001000000000 L
06
b100 C
0=
b10 9
b0 8
b1110011 %
b1110011 '
b1110011 G"
b1110011 *
b11 I
1#
#1190
0#
#1195
b101 H
b101 ;
b101001100010000 L
b101 C
b11 9
b1 8
b1110100 %
b1110100 '
b1110100 G"
b1110100 *
b100 I
1#
#1200
0#
#1205
b110 H
b110 ;
b110010000100000 L
b110 C
b100 9
b10 8
b1110101 %
b1110101 '
b1110101 G"
b1110101 *
b101 I
1#
#1210
0#
