contador_sintesis_RTLIL/resultados.vcd
$date
	Sat Sep 17 19:50:42 2022
$end
$version
	Icarus Verilog
$end
$timescale
	1ns
$end
$scope module tarea2testbench2 $end
$var wire 2 ! modo [1:0] $end
$var wire 1 " enb $end
$var wire 1 # clk $end
$var wire 4 $ RCO [3:0] $end
$var wire 16 % Q [15:0] $end
$var wire 16 & D [15:0] $end
$scope module B0 $end
$var wire 16 ' Q [15:0] $end
$var wire 4 ( RCO [3:0] $end
$var wire 4 ) rco1 [3:0] $end
$var wire 16 * q [15:0] $end
$var wire 1 + modo1 $end
$var wire 2 , modo [1:0] $end
$var wire 1 " enb $end
$var wire 1 # clk $end
$var wire 1 - a3 $end
$var wire 1 . a2 $end
$var wire 1 / a1 $end
$var wire 16 0 D [15:0] $end
$scope module U0 $end
$var wire 4 1 D [3:0] $end
$var wire 1 2 _13_ $end
$var wire 1 3 _14_ $end
$var wire 1 4 _15_ $end
$var wire 1 5 _16_ $end
$var wire 1 6 _17_ $end
$var wire 2 7 modo [1:0] $end
$var wire 1 " enb $end
$var wire 1 # clk $end
$var wire 32 8 _21_ [31:0] $end
$var wire 32 9 _20_ [31:0] $end
$var wire 1 : _19_ $end
$var wire 4 ; _18_ [3:0] $end
$var wire 1 < _12_ $end
$var wire 1 = _11_ $end
$var wire 1 > _10_ $end
$var wire 1 ? _09_ $end
$var wire 1 @ _08_ $end
$var wire 1 A _07_ $end
$var wire 1 B _06_ $end
$var wire 32 C _05_ [31:0] $end
$var wire 1 D _04_ $end
$var wire 1 E _03_ $end
$var wire 1 F _02_ $end
$var wire 1 G _01_ $end
$var wire 4 H _00_ [3:0] $end
$var reg 4 I Q [3:0] $end
$var reg 1 J RCO $end
$scope function _36_ $end
$var reg 4 K a [3:0] $end
$var reg 16 L b [15:0] $end
$var reg 4 M s [3:0] $end
$upscope $end
$upscope $end
$scope module U1 $end
$var wire 4 N D [3:0] $end
$var wire 1 O _14_ $end
$var wire 1 P _15_ $end
$var wire 1 Q _16_ $end
$var wire 1 R _17_ $end
$var wire 1 S _18_ $end
$var wire 1 / clk $end
$var wire 2 T modo [1:0] $end
$var wire 1 " enb $end
$var wire 32 U _21_ [31:0] $end
$var wire 1 V _20_ $end
$var wire 4 W _19_ [3:0] $end
$var wire 1 X _13_ $end
$var wire 1 Y _12_ $end
$var wire 1 Z _11_ $end
$var wire 1 [ _10_ $end
$var wire 1 \ _09_ $end
$var wire 1 ] _08_ $end
$var wire 1 ^ _07_ $end
$var wire 1 _ _06_ $end
$var wire 32 ` _05_ [31:0] $end
$var wire 1 a _04_ $end
$var wire 1 b _03_ $end
$var wire 1 c _02_ $end
$var wire 1 d _01_ $end
$var wire 4 e _00_ [3:0] $end
$var reg 4 f Q [3:0] $end
$var reg 1 g RCO $end
$scope function _39_ $end
$var reg 4 h a [3:0] $end
$var reg 12 i b [11:0] $end
$var reg 3 j s [2:0] $end
$upscope $end
$upscope $end
$scope module U2 $end
$var wire 4 k D [3:0] $end
$var wire 1 l _14_ $end
$var wire 1 m _15_ $end
$var wire 1 n _16_ $end
$var wire 1 o _17_ $end
$var wire 1 p _18_ $end
$var wire 1 . clk $end
$var wire 2 q modo [1:0] $end
$var wire 1 " enb $end
$var wire 32 r _21_ [31:0] $end
$var wire 1 s _20_ $end
$var wire 4 t _19_ [3:0] $end
$var wire 1 u _13_ $end
$var wire 1 v _12_ $end
$var wire 1 w _11_ $end
$var wire 1 x _10_ $end
$var wire 1 y _09_ $end
$var wire 1 z _08_ $end
$var wire 1 { _07_ $end
$var wire 1 | _06_ $end
$var wire 32 } _05_ [31:0] $end
$var wire 1 ~ _04_ $end
$var wire 1 !" _03_ $end
$var wire 1 "" _02_ $end
$var wire 1 #" _01_ $end
$var wire 4 $" _00_ [3:0] $end
$var reg 4 %" Q [3:0] $end
$var reg 1 &" RCO $end
$scope function _39_ $end
$var reg 4 '" a [3:0] $end
$var reg 12 (" b [11:0] $end
$var reg 3 )" s [2:0] $end
$upscope $end
$upscope $end
$scope module U3 $end
$var wire 4 *" D [3:0] $end
$var wire 1 +" _14_ $end
$var wire 1 ," _15_ $end
$var wire 1 -" _16_ $end
$var wire 1 ." _17_ $end
$var wire 1 /" _18_ $end
$var wire 1 - clk $end
$var wire 2 0" modo [1:0] $end
$var wire 1 " enb $end
$var wire 32 1" _21_ [31:0] $end
$var wire 1 2" _20_ $end
$var wire 4 3" _19_ [3:0] $end
$var wire 1 4" _13_ $end
$var wire 1 5" _12_ $end
$var wire 1 6" _11_ $end
$var wire 1 7" _10_ $end
$var wire 1 8" _09_ $end
$var wire 1 9" _08_ $end
$var wire 1 :" _07_ $end
$var wire 1 ;" _06_ $end
$var wire 32 <" _05_ [31:0] $end
$var wire 1 =" _04_ $end
$var wire 1 >" _03_ $end
$var wire 1 ?" _02_ $end
$var wire 1 @" _01_ $end
$var wire 4 A" _00_ [3:0] $end
$var reg 4 B" Q [3:0] $end
$var reg 1 C" RCO $end
$scope function _39_ $end
$var reg 4 D" a [3:0] $end
$var reg 12 E" b [11:0] $end
$var reg 3 F" s [2:0] $end
$upscope $end
$upscope $end
$upscope $end
$scope module senales $end
$var wire 16 G" Q [15:0] $end
$var wire 4 H" RCO [3:0] $end
$var reg 16 I" D [15:0] $end
$var reg 1 # clk $end
$var reg 1 " enb $end
$var reg 2 J" modo [1:0] $end
$upscope $end
$upscope $end
$enddefinitions $end
#0
$dumpvars
bx J"
b0 I"
b0x H"
bx G"
bx F"
bx0000 E"
bx D"
0C"
bx B"
bx A"
0@"
x?"
x>"
x="
bx <"
x;"
x:"
x9"
x8"
x7"
x6"
x5"
x4"
bx 3"
x2"
bx 1"
bx 0"
x/"
x."
x-"
x,"
x+"
b0 *"
bx )"
bx0000 ("
bx '"
0&"
bx %"
bx $"
0#"
x""
x!"
x~
bx }
x|
x{
xz
xy
xx
xw
xv
xu
bx t
xs
bx r
bx q
xp
xo
xn
xm
xl
b0 k
bx j
bx0000 i
bx h
0g
bx f
bx e
0d
xc
xb
xa
bx `
x_
x^
x]
x\
x[
xZ
xY
xX
bx W
xV
bx U
bx T
xS
xR
xQ
xP
xO
b0 N
bx M
bx0000 L
bx K
xJ
bx I
bx H
xG
xF
xE
xD
bx C
xB
xA
x@
x?
x>
x=
x<
bx ;
x:
bx 9
bx 8
bx 7
x6
x5
x4
x3
x2
b0 1
b0 0
x/
0.
0-
bx ,
x+
bx *
b0x )
b0x (
bx '
b0 &
bx %
b0x $
0#
0"
bx !
$end
#5
x-
x.
1#
#10
0-
0.
0#
#15
xC"
bx0x $
bx0x (
bx0x H"
bx0x )
x&"
x-
x.
x@"
x#"
xd
1#
1"
#20
bx1111 E"
bx1111 ("
bx1111 i
bx1111 L
0.
b1111 *"
b1111 k
b1111 N
b1111 1
0#
b1111111111111111 &
b1111111111111111 0
b1111111111111111 I"
#25
bx $
bx (
bx H"
bx )
xg
0@"
0#"
0d
0G
0?"
0>"
0="
b1111 A"
0""
0!"
0~
b1111 $"
0c
0b
0a
b1111 e
0F
0E
0D
b1111 H
0+"
0,"
0-"
b1111 3"
b1 F"
0l
0m
0n
b1111 t
b1 )"
0O
0P
0Q
b1111 W
b1 j
02
03
04
b1111 ;
b1 M
1/
1.
1-
1#
09"
0;"
07"
04"
12"
0z
0|
0x
0u
1s
0]
0_
0[
0X
1V
0A
0?
0<
1:
1+
b11 !
b11 ,
b11 7
b11 T
b11 q
b11 0"
b11 J"
#30
b0 A"
b0 $"
b0 e
b0 H
b0 3"
bx0000 E"
b0 t
bx0000 ("
b0 W
bx0000 i
b0 ;
bx0000 L
0-
0.
0/
b0 *"
b0 k
b0 N
b0 1
0#
b0 &
b0 0
b0 I"
#35
1S
b111110000 i
1p
b111110000 ("
1/"
b111110000 E"
16
b1111111010000 L
1R
1o
1."
15
0g
b1 `
0^
1\
0Z
0Y
b11111111111111111111111111111111 U
b0 f
0&"
b1 }
0{
1y
0w
0v
b11111111111111111111111111111111 r
b0 %"
0C"
b1 <"
0:"
18"
06"
05"
b11111111111111111111111111111111 1"
b0 B"
b0 $
b0 (
b0 H"
b0 )
0J
b1 C
0B
1@
0>
0=
b11111111111111111111111111111111 9
b11111111111111111111111111111101 8
b0 %
b0 '
b0 G"
b0 *
b0 I
1@"
1#"
1d
1G
1?"
1""
1c
1F
1>"
b1111 A"
1!"
b1111 $"
1b
b1111 e
1E
b1111 H
1,"
b1111 3"
b10 F"
1m
b1111 t
b10 )"
1P
b1111 W
b10 j
13
b1111 ;
b100 M
0/
0.
0-
1#
1;"
17"
02"
1|
1x
0s
1_
1[
0V
1?
0:
0+
b1 !
b1 ,
b1 7
b1 T
b1 q
b1 0"
b1 J"
#40
0#
#45
0@"
0?"
b1110 A"
0/"
0>"
b1110 3"
b11100000 E"
0."
0,"
b10000 <"
1:"
08"
b1110 1"
b1111 B"
1C"
0#"
0""
b1110 $"
0p
0!"
b1110 t
b11100000 ("
1-
0o
0m
b10000 }
1{
0y
b1110 r
b1111 %"
1&"
0d
0c
b1110 e
0S
0b
b1110 W
b11100000 i
1.
0R
0P
b10000 `
1^
0\
b1110 U
b1111 f
1g
0G
0F
b1110 H
06
0E
b1110 ;
b111011000000 L
1/
05
03
b10000 C
1B
0@
b1110 9
b1100 8
b1111111111111111 %
b1111111111111111 '
b1111111111111111 G"
b1111111111111111 *
b1111 I
b1111 $
b1111 (
b1111 H"
b1111 )
1J
1#
#50
0#
#55
b1101 H
0/
b1101 ;
b1111110110110000 L
b1110 $
b1110 (
b1110 H"
b1110 )
0J
b1111 C
0B
b1101 9
b1011 8
b1111111111111110 %
b1111111111111110 '
b1111111111111110 G"
b1111111111111110 *
b1110 I
1#
#60
0#
#65
b1100 H
b1100 ;
b1110110010100000 L
b1110 C
b1100 9
b1010 8
b1111111111111101 %
b1111111111111101 '
b1111111111111101 G"
b1111111111111101 *
b1101 I
1#
#70
0#
#75
b1011 H
b1011 ;
b1101101110010000 L
b1101 C
b1011 9
b1001 8
b1111111111111100 %
b1111111111111100 '
b1111111111111100 G"
b1111111111111100 *
b1100 I
1#
#80
0#
#85
b1010 H
b1010 ;
b1100101010000000 L
b1100 C
b1010 9
b1000 8
b1111111111111011 %
b1111111111111011 '
b1111111111111011 G"
b1111111111111011 *
b1011 I
1#
#90
0#
#95
b1001 H
b1001 ;
b1011100101110000 L
b1011 C
b1001 9
b111 8
b1111111111111010 %
b1111111111111010 '
b1111111111111010 G"
b1111111111111010 *
b1010 I
1#
#100
0#
#105
b1000 H
b1000 ;
b1010100001100000 L
b1010 C
b1000 9
b110 8
b1111111111111001 %
b1111111111111001 '
b1111111111111001 G"
b1111111111111001 *
b1001 I
1#
#110
0#
#115
b111 H
b111 ;
b1001011101010000 L
b1001 C
b111 9
b101 8
b1111111111111000 %
b1111111111111000 '
b1111111111111000 G"
b1111111111111000 *
b1000 I
1#
#120
0#
#125
b110 H
b110 ;
b1000011001000000 L
b1000 C
b110 9
b100 8
b1111111111110111 %
b1111111111110111 '
b1111111111110111 G"
b1111111111110111 *
b111 I
1#
#130
0#
#135
b101 H
b101 ;
b111010100110000 L
b111 C
b101 9
b11 8
b1111111111110110 %
b1111111111110110 '
b1111111111110110 G"
b1111111111110110 *
b110 I
1#
#140
0#
#145
b100 H
b100 ;
b110010000100000 L
b110 C
b100 9
b10 8
b1111111111110101 %
b1111111111110101 '
b1111111111110101 G"
b1111111111110101 *
b101 I
1#
#150
0#
#155
b11 H
b11 ;
b101001100010000 L
b101 C
b11 9
b1 8
b1111111111110100 %
b1111111111110100 '
b1111111111110100 G"
b1111111111110100 *
b100 I
1#
#160
0#
#165
b10 H
b10 ;
b100001000000000 L
b100 C
b10 9
b0 8
b1111111111110011 %
b1111111111110011 '
b1111111111110011 G"
b1111111111110011 *
b11 I
1#
#170
0#
#175
b1 H
b1 ;
b11000111110000 L
16
b11 C
1=
b1 9
b11111111111111111111111111111111 8
b1111111111110010 %
b1111111111110010 '
b1111111111110010 G"
b1111111111110010 *
b10 I
1#
#180
0#
#185
b0 H
b0 ;
b10000011100000 L
15
16
b10 C
1>
0=
b0 9
b11111111111111111111111111111110 8
b1111111111110001 %
b1111111111110001 '
b1111111111110001 G"
b1111111111110001 *
b1 I
1#
#190
0#
#195
1G
1F
b1111 H
1E
b1111 ;
b1111111010000 L
13
b1 C
1@
0>
b11111111111111111111111111111111 9
b11111111111111111111111111111101 8
b1111111111110000 %
b1111111111110000 '
b1111111111110000 G"
b1111111111110000 *
b0 I
1#
#200
0#
#205
b1101 e
0.
b1101 W
b111111010000 i
0g
b1111 `
0^
b1101 U
b1110 f
0G
0F
b1110 H
06
0E
b1110 ;
b111011000000 L
1/
05
03
b10000 C
1B
0@
b1110 9
b1100 8
b1111111111101111 %
b1111111111101111 '
b1111111111101111 G"
b1111111111101111 *
b1111 I
b1101 $
b1101 (
b1101 H"
b1101 )
1J
1#
#210
0#
#215
b1101 H
0/
b1101 ;
b1111110110110000 L
b1100 $
b1100 (
b1100 H"
b1100 )
0J
b1111 C
0B
b1101 9
b1011 8
b1111111111101110 %
b1111111111101110 '
b1111111111101110 G"
b1111111111101110 *
b1110 I
1#
#220
0#
#225
b1100 H
b1100 ;
b1110110010100000 L
b1110 C
b1100 9
b1010 8
b1111111111101101 %
b1111111111101101 '
b1111111111101101 G"
b1111111111101101 *
b1101 I
1#
#230
0#
#235
b1011 H
b1011 ;
b1101101110010000 L
b1101 C
b1011 9
b1001 8
b1111111111101100 %
b1111111111101100 '
b1111111111101100 G"
b1111111111101100 *
b1100 I
1#
#240
0#
#245
b1010 H
b1010 ;
b1100101010000000 L
b1100 C
b1010 9
b1000 8
b1111111111101011 %
b1111111111101011 '
b1111111111101011 G"
b1111111111101011 *
b1011 I
1#
#250
0#
#255
b1001 H
b1001 ;
b1011100101110000 L
b1011 C
b1001 9
b111 8
b1111111111101010 %
b1111111111101010 '
b1111111111101010 G"
b1111111111101010 *
b1010 I
1#
#260
0#
#265
b1000 H
b1000 ;
b1010100001100000 L
b1010 C
b1000 9
b110 8
b1111111111101001 %
b1111111111101001 '
b1111111111101001 G"
b1111111111101001 *
b1001 I
1#
#270
0#
#275
b111 H
b111 ;
b1001011101010000 L
b1001 C
b111 9
b101 8
b1111111111101000 %
b1111111111101000 '
b1111111111101000 G"
b1111111111101000 *
b1000 I
1#
#280
0#
#285
b110 H
b110 ;
b1000011001000000 L
b1000 C
b110 9
b100 8
b1111111111100111 %
b1111111111100111 '
b1111111111100111 G"
b1111111111100111 *
b111 I
1#
#290
0#
#295
b101 H
b101 ;
b111010100110000 L
b111 C
b101 9
b11 8
b1111111111100110 %
b1111111111100110 '
b1111111111100110 G"
b1111111111100110 *
b110 I
1#
#300
0#
#305
b100 H
b100 ;
b110010000100000 L
b110 C
b100 9
b10 8
b1111111111100101 %
b1111111111100101 '
b1111111111100101 G"
b1111111111100101 *
b101 I
1#
#310
0#
#315
b11 H
b11 ;
b101001100010000 L
b101 C
b11 9
b1 8
b1111111111100100 %
b1111111111100100 '
b1111111111100100 G"
b1111111111100100 *
b100 I
1#
#320
0#
#325
b10 H
b10 ;
b100001000000000 L
b100 C
b10 9
b0 8
b1111111111100011 %
b1111111111100011 '
b1111111111100011 G"
b1111111111100011 *
b11 I
1#
#330
0#
#335
b1 H
b1 ;
b11000111110000 L
16
b11 C
1=
b1 9
b11111111111111111111111111111111 8
b1111111111100010 %
b1111111111100010 '
b1111111111100010 G"
b1111111111100010 *
b10 I
1#
#340
0#
#345
b0 H
b0 ;
b10000011100000 L
15
16
b10 C
1>
0=
b0 9
b11111111111111111111111111111110 8
b1111111111100001 %
b1111111111100001 '
b1111111111100001 G"
b1111111111100001 *
b1 I
1#
#350
0#
#355
1G
1F
b1111 H
1E
b1111 ;
b1111111010000 L
13
b1 C
1@
0>
b11111111111111111111111111111111 9
b11111111111111111111111111111101 8
b1111111111100000 %
b1111111111100000 '
b1111111111100000 G"
b1111111111100000 *
b0 I
1#
#360
0#
#365
b1100 e
b1100 W
b111011000000 i
b1110 `
b1100 U
b1101 f
0G
0F
b1110 H
06
0E
b1110 ;
b111011000000 L
1/
05
03
b10000 C
1B
0@
b1110 9
b1100 8
b1111111111011111 %
b1111111111011111 '
b1111111111011111 G"
b1111111111011111 *
b1111 I
b1101 $
b1101 (
b1101 H"
b1101 )
1J
1#
#370
0#
#375
b1101 H
0/
b1101 ;
b1111110110110000 L
b1100 $
b1100 (
b1100 H"
b1100 )
0J
b1111 C
0B
b1101 9
b1011 8
b1111111111011110 %
b1111111111011110 '
b1111111111011110 G"
b1111111111011110 *
b1110 I
1#
#380
0#
#385
b1100 H
b1100 ;
b1110110010100000 L
b1110 C
b1100 9
b1010 8
b1111111111011101 %
b1111111111011101 '
b1111111111011101 G"
b1111111111011101 *
b1101 I
1#
#390
0#
#395
b1011 H
b1011 ;
b1101101110010000 L
b1101 C
b1011 9
b1001 8
b1111111111011100 %
b1111111111011100 '
b1111111111011100 G"
b1111111111011100 *
b1100 I
1#
#400
0#
#405
b1010 H
b1010 ;
b1100101010000000 L
b1100 C
b1010 9
b1000 8
b1111111111011011 %
b1111111111011011 '
b1111111111011011 G"
b1111111111011011 *
b1011 I
1#
#410
0#
#415
b1001 H
b1001 ;
b1011100101110000 L
b1011 C
b1001 9
b111 8
b1111111111011010 %
b1111111111011010 '
b1111111111011010 G"
b1111111111011010 *
b1010 I
1#
#420
0#
#425
b1000 H
b1000 ;
b1010100001100000 L
b1010 C
b1000 9
b110 8
b1111111111011001 %
b1111111111011001 '
b1111111111011001 G"
b1111111111011001 *
b1001 I
1#
#430
0#
#435
b111 H
b111 ;
b1001011101010000 L
b1001 C
b111 9
b101 8
b1111111111011000 %
b1111111111011000 '
b1111111111011000 G"
b1111111111011000 *
b1000 I
1#
#440
0#
#445
b110 H
b110 ;
b1000011001000000 L
b1000 C
b110 9
b100 8
b1111111111010111 %
b1111111111010111 '
b1111111111010111 G"
b1111111111010111 *
b111 I
1#
#450
0#
#455
b101 H
b101 ;
b111010100110000 L
b111 C
b101 9
b11 8
b1111111111010110 %
b1111111111010110 '
b1111111111010110 G"
b1111111111010110 *
b110 I
1#
#460
0#
#465
b100 H
b100 ;
b110010000100000 L
b110 C
b100 9
b10 8
b1111111111010101 %
b1111111111010101 '
b1111111111010101 G"
b1111111111010101 *
b101 I
1#
#470
0#
#475
b11 H
b11 ;
b101001100010000 L
b101 C
b11 9
b1 8
b1111111111010100 %
b1111111111010100 '
b1111111111010100 G"
b1111111111010100 *
b100 I
1#
#480
0#
#485
b10 H
b10 ;
b100001000000000 L
b100 C
b10 9
b0 8
b1111111111010011 %
b1111111111010011 '
b1111111111010011 G"
b1111111111010011 *
b11 I
1#
#490
0#
#495
b1 H
b1 ;
b11000111110000 L
16
b11 C
1=
b1 9
b11111111111111111111111111111111 8
b1111111111010010 %
b1111111111010010 '
b1111111111010010 G"
b1111111111010010 *
b10 I
1#
#500
0#
#505
b0 H
b0 ;
b10000011100000 L
15
16
b10 C
1>
0=
b0 9
b11111111111111111111111111111110 8
b1111111111010001 %
b1111111111010001 '
b1111111111010001 G"
b1111111111010001 *
b1 I
1#
#510
0#
#515
1G
1F
b1111 H
1E
b1111 ;
b1111111010000 L
13
b1 C
1@
0>
b11111111111111111111111111111111 9
b11111111111111111111111111111101 8
b1111111111010000 %
b1111111111010000 '
b1111111111010000 G"
b1111111111010000 *
b0 I
1#
#520
0#
#525
b1011 e
b1011 W
b110110110000 i
b1101 `
b1011 U
b1100 f
0G
0F
b1110 H
06
0E
b1110 ;
b111011000000 L
1/
05
03
b10000 C
1B
0@
b1110 9
b1100 8
b1111111111001111 %
b1111111111001111 '
b1111111111001111 G"
b1111111111001111 *
b1111 I
b1101 $
b1101 (
b1101 H"
b1101 )
1J
1#
#530
0#
#535
b1101 H
0/
b1101 ;
b1111110110110000 L
b1100 $
b1100 (
b1100 H"
b1100 )
0J
b1111 C
0B
b1101 9
b1011 8
b1111111111001110 %
b1111111111001110 '
b1111111111001110 G"
b1111111111001110 *
b1110 I
1#
#540
0#
#545
b1100 H
b1100 ;
b1110110010100000 L
b1110 C
b1100 9
b1010 8
b1111111111001101 %
b1111111111001101 '
b1111111111001101 G"
b1111111111001101 *
b1101 I
1#
#550
0#
#555
b1011 H
b1011 ;
b1101101110010000 L
b1101 C
b1011 9
b1001 8
b1111111111001100 %
b1111111111001100 '
b1111111111001100 G"
b1111111111001100 *
b1100 I
1#
#560
0#
#565
b1010 H
b1010 ;
b1100101010000000 L
b1100 C
b1010 9
b1000 8
b1111111111001011 %
b1111111111001011 '
b1111111111001011 G"
b1111111111001011 *
b1011 I
1#
#570
0#
#575
b1001 H
b1001 ;
b1011100101110000 L
b1011 C
b1001 9
b111 8
b1111111111001010 %
b1111111111001010 '
b1111111111001010 G"
b1111111111001010 *
b1010 I
1#
#580
0#
#585
b1000 H
b1000 ;
b1010100001100000 L
b1010 C
b1000 9
b110 8
b1111111111001001 %
b1111111111001001 '
b1111111111001001 G"
b1111111111001001 *
b1001 I
1#
#590
0#
#595
b111 H
b111 ;
b1001011101010000 L
b1001 C
b111 9
b101 8
b1111111111001000 %
b1111111111001000 '
b1111111111001000 G"
b1111111111001000 *
b1000 I
1#
#600
0#
#605
b110 H
b110 ;
b1000011001000000 L
b1000 C
b110 9
b100 8
b1111111111000111 %
b1111111111000111 '
b1111111111000111 G"
b1111111111000111 *
b111 I
1#
#610
0#
#615
b101 H
b101 ;
b111010100110000 L
b111 C
b101 9
b11 8
b1111111111000110 %
b1111111111000110 '
b1111111111000110 G"
b1111111111000110 *
b110 I
1#
#620
0#
#625
b100 H
b100 ;
b110010000100000 L
b110 C
b100 9
b10 8
b1111111111000101 %
b1111111111000101 '
b1111111111000101 G"
b1111111111000101 *
b101 I
1#
#630
0#
#635
b11 H
b11 ;
b101001100010000 L
b101 C
b11 9
b1 8
b1111111111000100 %
b1111111111000100 '
b1111111111000100 G"
b1111111111000100 *
b100 I
1#
#640
0#
#645
b10 H
b10 ;
b100001000000000 L
b100 C
b10 9
b0 8
b1111111111000011 %
b1111111111000011 '
b1111111111000011 G"
b1111111111000011 *
b11 I
1#
#650
0#
#655
b1 H
b1 ;
b11000111110000 L
16
b11 C
1=
b1 9
b11111111111111111111111111111111 8
b1111111111000010 %
b1111111111000010 '
b1111111111000010 G"
b1111111111000010 *
b10 I
1#
#660
0#
#665
b0 H
b0 ;
b10000011100000 L
15
16
b10 C
1>
0=
b0 9
b11111111111111111111111111111110 8
b1111111111000001 %
b1111111111000001 '
b1111111111000001 G"
b1111111111000001 *
b1 I
1#
#670
0#
#675
1G
1F
b1111 H
1E
b1111 ;
b1111111010000 L
13
b1 C
1@
0>
b11111111111111111111111111111111 9
b11111111111111111111111111111101 8
b1111111111000000 %
b1111111111000000 '
b1111111111000000 G"
b1111111111000000 *
b0 I
1#
#680
0#
#685
b1010 e
b1010 W
b110010100000 i
b1100 `
b1010 U
b1011 f
0G
0F
b1110 H
06
0E
b1110 ;
b111011000000 L
1/
05
03
b10000 C
1B
0@
b1110 9
b1100 8
b1111111110111111 %
b1111111110111111 '
b1111111110111111 G"
b1111111110111111 *
b1111 I
b1101 $
b1101 (
b1101 H"
b1101 )
1J
1#
#690
0#
#695
b1101 H
0/
b1101 ;
b1111110110110000 L
b1100 $
b1100 (
b1100 H"
b1100 )
0J
b1111 C
0B
b1101 9
b1011 8
b1111111110111110 %
b1111111110111110 '
b1111111110111110 G"
b1111111110111110 *
b1110 I
1#
#700
0#
#705
b1100 H
b1100 ;
b1110110010100000 L
b1110 C
b1100 9
b1010 8
b1111111110111101 %
b1111111110111101 '
b1111111110111101 G"
b1111111110111101 *
b1101 I
1#
#710
0#
#715
b1011 H
b1011 ;
b1101101110010000 L
b1101 C
b1011 9
b1001 8
b1111111110111100 %
b1111111110111100 '
b1111111110111100 G"
b1111111110111100 *
b1100 I
1#
#720
0#
#725
b1010 H
b1010 ;
b1100101010000000 L
b1100 C
b1010 9
b1000 8
b1111111110111011 %
b1111111110111011 '
b1111111110111011 G"
b1111111110111011 *
b1011 I
1#
#730
0#
#735
b1001 H
b1001 ;
b1011100101110000 L
b1011 C
b1001 9
b111 8
b1111111110111010 %
b1111111110111010 '
b1111111110111010 G"
b1111111110111010 *
b1010 I
1#
#740
0#
#745
b1000 H
b1000 ;
b1010100001100000 L
b1010 C
b1000 9
b110 8
b1111111110111001 %
b1111111110111001 '
b1111111110111001 G"
b1111111110111001 *
b1001 I
1#
#750
0#
#755
b111 H
b111 ;
b1001011101010000 L
b1001 C
b111 9
b101 8
b1111111110111000 %
b1111111110111000 '
b1111111110111000 G"
b1111111110111000 *
b1000 I
1#
#760
0#
#765
b110 H
b110 ;
b1000011001000000 L
b1000 C
b110 9
b100 8
b1111111110110111 %
b1111111110110111 '
b1111111110110111 G"
b1111111110110111 *
b111 I
1#
#770
0#
#775
b101 H
b101 ;
b111010100110000 L
b111 C
b101 9
b11 8
b1111111110110110 %
b1111111110110110 '
b1111111110110110 G"
b1111111110110110 *
b110 I
1#
#780
0#
#785
b100 H
b100 ;
b110010000100000 L
b110 C
b100 9
b10 8
b1111111110110101 %
b1111111110110101 '
b1111111110110101 G"
b1111111110110101 *
b101 I
1#
#790
0#
#795
b11 H
b11 ;
b101001100010000 L
b101 C
b11 9
b1 8
b1111111110110100 %
b1111111110110100 '
b1111111110110100 G"
b1111111110110100 *
b100 I
1#
#800
0#
#805
b10 H
b10 ;
b100001000000000 L
b100 C
b10 9
b0 8
b1111111110110011 %
b1111111110110011 '
b1111111110110011 G"
b1111111110110011 *
b11 I
1#
#810
0#
#815
b1 H
b1 ;
b11000111110000 L
16
b11 C
1=
b1 9
b11111111111111111111111111111111 8
b1111111110110010 %
b1111111110110010 '
b1111111110110010 G"
b1111111110110010 *
b10 I
1#
#820
0#
#825
b0 H
b0 ;
b10000011100000 L
15
16
b10 C
1>
0=
b0 9
b11111111111111111111111111111110 8
b1111111110110001 %
b1111111110110001 '
b1111111110110001 G"
b1111111110110001 *
b1 I
1#
#830
0#
#835
1G
1F
b1111 H
1E
b1111 ;
b1111111010000 L
13
b1 C
1@
0>
b11111111111111111111111111111111 9
b11111111111111111111111111111101 8
b1111111110110000 %
b1111111110110000 '
b1111111110110000 G"
b1111111110110000 *
b0 I
1#
#840
0#
#845
b1001 e
b1001 W
b101110010000 i
b1011 `
b1001 U
b1010 f
0G
0F
b1110 H
06
0E
b1110 ;
b111011000000 L
1/
05
03
b10000 C
1B
0@
b1110 9
b1100 8
b1111111110101111 %
b1111111110101111 '
b1111111110101111 G"
b1111111110101111 *
b1111 I
b1101 $
b1101 (
b1101 H"
b1101 )
1J
1#
#850
0#
#855
b1101 H
0/
b1101 ;
b1111110110110000 L
b1100 $
b1100 (
b1100 H"
b1100 )
0J
b1111 C
0B
b1101 9
b1011 8
b1111111110101110 %
b1111111110101110 '
b1111111110101110 G"
b1111111110101110 *
b1110 I
1#
#860
0#
#865
b1100 H
b1100 ;
b1110110010100000 L
b1110 C
b1100 9
b1010 8
b1111111110101101 %
b1111111110101101 '
b1111111110101101 G"
b1111111110101101 *
b1101 I
1#
#870
0#
#875
b1011 H
b1011 ;
b1101101110010000 L
b1101 C
b1011 9
b1001 8
b1111111110101100 %
b1111111110101100 '
b1111111110101100 G"
b1111111110101100 *
b1100 I
1#
#880
0#
#885
b1010 H
b1010 ;
b1100101010000000 L
b1100 C
b1010 9
b1000 8
b1111111110101011 %
b1111111110101011 '
b1111111110101011 G"
b1111111110101011 *
b1011 I
1#
#890
0#
#895
b1001 H
b1001 ;
b1011100101110000 L
b1011 C
b1001 9
b111 8
b1111111110101010 %
b1111111110101010 '
b1111111110101010 G"
b1111111110101010 *
b1010 I
1#
#900
0#
#905
b1000 H
b1000 ;
b1010100001100000 L
b1010 C
b1000 9
b110 8
b1111111110101001 %
b1111111110101001 '
b1111111110101001 G"
b1111111110101001 *
b1001 I
1#
#910
0#
#915
b111 H
b111 ;
b1001011101010000 L
b1001 C
b111 9
b101 8
b1111111110101000 %
b1111111110101000 '
b1111111110101000 G"
b1111111110101000 *
b1000 I
1#
#920
0#
#925
b110 H
b110 ;
b1000011001000000 L
b1000 C
b110 9
b100 8
b1111111110100111 %
b1111111110100111 '
b1111111110100111 G"
b1111111110100111 *
b111 I
1#
#930
0#
#935
b101 H
b101 ;
b111010100110000 L
b111 C
b101 9
b11 8
b1111111110100110 %
b1111111110100110 '
b1111111110100110 G"
b1111111110100110 *
b110 I
1#
#940
0#
#945
b100 H
b100 ;
b110010000100000 L
b110 C
b100 9
b10 8
b1111111110100101 %
b1111111110100101 '
b1111111110100101 G"
b1111111110100101 *
b101 I
1#
#950
0#
#955
b11 H
b11 ;
b101001100010000 L
b101 C
b11 9
b1 8
b1111111110100100 %
b1111111110100100 '
b1111111110100100 G"
b1111111110100100 *
b100 I
1#
#960
0#
#965
b10 H
b10 ;
b100001000000000 L
b100 C
b10 9
b0 8
b1111111110100011 %
b1111111110100011 '
b1111111110100011 G"
b1111111110100011 *
b11 I
1#
#970
0#
#975
b1 H
b1 ;
b11000111110000 L
16
b11 C
1=
b1 9
b11111111111111111111111111111111 8
b1111111110100010 %
b1111111110100010 '
b1111111110100010 G"
b1111111110100010 *
b10 I
1#
#980
0#
#985
b0 H
b0 ;
b10000011100000 L
15
16
b10 C
1>
0=
b0 9
b11111111111111111111111111111110 8
b1111111110100001 %
b1111111110100001 '
b1111111110100001 G"
b1111111110100001 *
b1 I
1#
#990
0#
#995
1G
1F
b1111 H
1E
b1111 ;
b1111111010000 L
13
b1 C
1@
0>
b11111111111111111111111111111111 9
b11111111111111111111111111111101 8
b1111111110100000 %
b1111111110100000 '
b1111111110100000 G"
b1111111110100000 *
b0 I
1#
#1000
0#
