contador16bitsTarea1/resultados.vcd
$date
	Sat Sep 17 14:01:14 2022
$end
$version
	Icarus Verilog
$end
$timescale
	1ns
$end
$scope module tarea1tb2 $end
$var wire 2 ! modo [1:0] $end
$var wire 1 " enb $end
$var wire 1 # clk $end
$var wire 4 $ a [3:0] $end
$var wire 4 % RCO [3:0] $end
$var wire 16 & Q [15:0] $end
$var wire 16 ' D [15:0] $end
$scope module U0 $end
$var wire 4 ( D [3:0] $end
$var wire 2 ) modo [1:0] $end
$var wire 1 " enb $end
$var wire 1 # clk $end
$var reg 4 * Q [3:0] $end
$var reg 1 + RCO $end
$var reg 1 , a $end
$upscope $end
$scope module U1 $end
$var wire 4 - D [3:0] $end
$var wire 1 . clk $end
$var wire 2 / modo [1:0] $end
$var wire 1 " enb $end
$var reg 4 0 Q [3:0] $end
$var reg 1 1 RCO $end
$var reg 1 2 a $end
$upscope $end
$scope module U2 $end
$var wire 4 3 D [3:0] $end
$var wire 1 4 clk $end
$var wire 2 5 modo [1:0] $end
$var wire 1 " enb $end
$var reg 4 6 Q [3:0] $end
$var reg 1 7 RCO $end
$var reg 1 8 a $end
$upscope $end
$scope module U3 $end
$var wire 4 9 D [3:0] $end
$var wire 1 : clk $end
$var wire 2 ; modo [1:0] $end
$var wire 1 " enb $end
$var reg 4 < Q [3:0] $end
$var reg 1 = RCO $end
$var reg 1 > a $end
$upscope $end
$scope module senales $end
$var wire 16 ? Q [15:0] $end
$var wire 4 @ RCO [3:0] $end
$var wire 4 A a [3:0] $end
$var reg 16 B D [15:0] $end
$var reg 1 # clk $end
$var reg 1 " enb $end
$var reg 2 C modo [1:0] $end
$upscope $end
$upscope $end
$enddefinitions $end
#0
$dumpvars
bx C
b1111111111111111 B
bx A
bx @
bx ?
x>
x=
bx <
bx ;
x:
b1111 9
x8
x7
bx 6
bx 5
x4
b1111 3
x2
x1
bx 0
bx /
x.
b1111 -
x,
x+
bx *
bx )
b1111 (
b1111111111111111 '
bx &
bx %
bx $
0#
0"
bx !
$end
#5
bx0 %
bx0 @
0+
1#
1"
#10
0#
b11 !
b11 )
b11 /
b11 5
b11 ;
b11 C
#15
1>
b1111 <
0=
1:
18
b1111 6
07
14
12
b1111 0
b0 %
b0 @
01
1.
b1111 $
b1111 A
1,
b1111111111111111 &
b1111111111111111 ?
b1111 *
1#
#20
0#
#25
1#
#30
0#
#35
1#
#40
0#
#45
1#
#50
0#
#55
1#
#60
0#
#65
1#
#70
0#
#75
1#
#80
0#
#85
1#
#90
0#
#95
1#
#100
0#
#105
1#
#110
0#
#115
0.
b1110 $
b1110 A
0,
b1111111111111100 &
b1111111111111100 ?
b1100 *
1#
b10 !
b10 )
b10 /
b10 5
b10 ;
b10 C
#120
0#
#125
b1111111111111001 &
b1111111111111001 ?
b1001 *
1#
#130
0#
#135
b1111111111110110 &
b1111111111110110 ?
b110 *
1#
#140
0#
#145
b1111111111110011 &
b1111111111110011 ?
b11 *
1#
#150
0#
#155
b1111111111110000 &
b1111111111110000 ?
b0 *
b1 %
b1 @
1+
1#
#160
0#
#165
04
02
b1100 0
1.
b1101 $
b1101 A
1,
b1111111111001101 &
b1111111111001101 ?
b1101 *
b0 %
b0 @
0+
1#
#170
0#
#175
0.
b1100 $
b1100 A
0,
b1111111111001010 &
b1111111111001010 ?
b1010 *
1#
#180
0#
#185
b1111111111000111 &
b1111111111000111 ?
b111 *
1#
#190
0#
#195
b1111111111000100 &
b1111111111000100 ?
b100 *
1#
#200
0#
#205
b1111111111000001 &
b1111111111000001 ?
b1 *
b1 %
b1 @
1+
1#
#210
0#
#215
b1001 0
1.
b1101 $
b1101 A
1,
b1111111110011110 &
b1111111110011110 ?
b1110 *
b0 %
b0 @
0+
1#
#220
0#
#225
0.
b1100 $
b1100 A
0,
b1111111110011011 &
b1111111110011011 ?
b1011 *
1#
#230
0#
#235
b1111111110011000 &
b1111111110011000 ?
b1000 *
1#
#240
0#
#245
b1111111110010101 &
b1111111110010101 ?
b101 *
1#
#250
0#
#255
b1111111110010010 &
b1111111110010010 ?
b10 *
b1 %
b1 @
1+
1#
#260
0#
#265
b110 0
1.
b1101 $
b1101 A
1,
b1111111101101111 &
b1111111101101111 ?
b1111 *
b0 %
b0 @
0+
1#
#270
0#
#275
0.
b1100 $
b1100 A
0,
b1111111101101100 &
b1111111101101100 ?
b1100 *
1#
#280
0#
#285
b1111111101101001 &
b1111111101101001 ?
b1001 *
1#
#290
0#
#295
b1111111101100110 &
b1111111101100110 ?
b110 *
1#
#300
0#
#305
b1111111101100011 &
b1111111101100011 ?
b11 *
1#
#310
0#
#315
b1111111101100000 &
b1111111101100000 ?
b0 *
b1 %
b1 @
1+
1#
#320
0#
#325
b11 0
1.
b1101 $
b1101 A
1,
b1111111100111101 &
b1111111100111101 ?
b1101 *
b0 %
b0 @
0+
1#
#330
0#
#335
0.
b1100 $
b1100 A
0,
b1111111100111010 &
b1111111100111010 ?
b1010 *
1#
#340
0#
#345
b1111111100110111 &
b1111111100110111 ?
b111 *
1#
#350
0#
#355
b1111111100110100 &
b1111111100110100 ?
b100 *
1#
#360
0#
#365
b1111111100110001 &
b1111111100110001 ?
b1 *
b1 %
b1 @
1+
1#
#370
0#
#375
b0 0
11
1.
b1101 $
b1101 A
1,
b1111111100001110 &
b1111111100001110 ?
b1110 *
b10 %
b10 @
0+
1#
#380
0#
#385
0.
b1100 $
b1100 A
0,
b1111111100001011 &
b1111111100001011 ?
b1011 *
1#
#390
0#
#395
b1111111100001000 &
b1111111100001000 ?
b1000 *
1#
#400
0#
#405
b1111111100000101 &
b1111111100000101 ?
b101 *
1#
#410
0#
#415
b1111111100000010 &
b1111111100000010 ?
b10 *
b11 %
b11 @
1+
1#
#420
0#
#425
0:
08
b1100 6
14
12
b1101 0
01
1.
b1011 $
b1011 A
1,
b1111110011011111 &
b1111110011011111 ?
b1111 *
b0 %
b0 @
0+
1#
#430
0#
#435
0.
b1010 $
b1010 A
0,
b1111110011011100 &
b1111110011011100 ?
b1100 *
1#
#440
0#
#445
b1111110011011001 &
b1111110011011001 ?
b1001 *
1#
#450
0#
#455
b1111110011010110 &
b1111110011010110 ?
b110 *
1#
#460
0#
#465
b1111110011010011 &
b1111110011010011 ?
b11 *
1#
#470
0#
#475
b1111110011010000 &
b1111110011010000 ?
b0 *
b1 %
b1 @
1+
1#
#480
0#
#485
04
02
b1010 0
1.
b1001 $
b1001 A
1,
b1111110010101101 &
b1111110010101101 ?
b1101 *
b0 %
b0 @
0+
1#
#490
0#
#495
0.
b1000 $
b1000 A
0,
b1111110010101010 &
b1111110010101010 ?
b1010 *
1#
#500
0#
#505
b1111110010100111 &
b1111110010100111 ?
b111 *
1#
#510
0#
#515
b1111110010100100 &
b1111110010100100 ?
b100 *
1#
#520
0#
#525
b1111110010100001 &
b1111110010100001 ?
b1 *
b1 %
b1 @
1+
1#
#530
0#
#535
b111 0
1.
b1001 $
b1001 A
1,
b1111110001111110 &
b1111110001111110 ?
b1110 *
b0 %
b0 @
0+
1#
#540
0#
#545
0.
b1000 $
b1000 A
0,
b1111110001111011 &
b1111110001111011 ?
b1011 *
1#
#550
0#
#555
b1111110001111000 &
b1111110001111000 ?
b1000 *
1#
#560
0#
#565
b1111110001110101 &
b1111110001110101 ?
b101 *
1#
#570
0#
#575
b1111110001110010 &
b1111110001110010 ?
b10 *
b1 %
b1 @
1+
1#
#580
0#
#585
b100 0
1.
b1001 $
b1001 A
1,
b1111110001001111 &
b1111110001001111 ?
b1111 *
b0 %
b0 @
0+
1#
#590
0#
#595
0.
b1000 $
b1000 A
0,
b1111110001001100 &
b1111110001001100 ?
b1100 *
1#
#600
0#
#605
b1111110001001001 &
b1111110001001001 ?
b1001 *
1#
#610
0#
#615
b1111110001000110 &
b1111110001000110 ?
b110 *
1#
#620
0#
#625
b1111110001000011 &
b1111110001000011 ?
b11 *
1#
#630
0#
#635
b1111110001000000 &
b1111110001000000 ?
b0 *
b1 %
b1 @
1+
1#
#640
0#
#645
b1 0
11
1.
b1001 $
b1001 A
1,
b1111110000011101 &
b1111110000011101 ?
b1101 *
b10 %
b10 @
0+
1#
#650
0#
#655
0.
b1000 $
b1000 A
0,
b1111110000011010 &
b1111110000011010 ?
b1010 *
1#
#660
0#
#665
b1111110000010111 &
b1111110000010111 ?
b111 *
1#
#670
0#
#675
b1111110000010100 &
b1111110000010100 ?
b100 *
1#
#680
0#
#685
b1111110000010001 &
b1111110000010001 ?
b1 *
b11 %
b11 @
1+
1#
#690
0#
#695
b1001 6
14
12
b1110 0
01
1.
b1011 $
b1011 A
1,
b1111100111101110 &
b1111100111101110 ?
b1110 *
b0 %
b0 @
0+
1#
#700
0#
#705
0.
b1010 $
b1010 A
0,
b1111100111101011 &
b1111100111101011 ?
b1011 *
1#
#710
0#
#715
b1111100111101000 &
b1111100111101000 ?
b1000 *
1#
#720
0#
#725
b1111100111100101 &
b1111100111100101 ?
b101 *
1#
#730
0#
#735
b1111100111100010 &
b1111100111100010 ?
b10 *
b1 %
b1 @
1+
1#
#740
0#
#745
04
02
b1011 0
1.
b1001 $
b1001 A
1,
b1111100110111111 &
b1111100110111111 ?
b1111 *
b0 %
b0 @
0+
1#
#750
0#
#755
0.
b1000 $
b1000 A
0,
b1111100110111100 &
b1111100110111100 ?
b1100 *
1#
#760
0#
#765
b1111100110111001 &
b1111100110111001 ?
b1001 *
1#
#770
0#
#775
b1111100110110110 &
b1111100110110110 ?
b110 *
1#
#780
0#
#785
b1111100110110011 &
b1111100110110011 ?
b11 *
1#
#790
0#
#795
b1111100110110000 &
b1111100110110000 ?
b0 *
b1 %
b1 @
1+
1#
#800
0#
#805
b1000 0
1.
b1001 $
b1001 A
1,
b1111100110001101 &
b1111100110001101 ?
b1101 *
b0 %
b0 @
0+
1#
#810
0#
#815
0.
b1000 $
b1000 A
0,
b1111100110001010 &
b1111100110001010 ?
b1010 *
1#
#820
0#
#825
b1111100110000111 &
b1111100110000111 ?
b111 *
1#
#830
0#
#835
b1111100110000100 &
b1111100110000100 ?
b100 *
1#
#840
0#
#845
b1111100110000001 &
b1111100110000001 ?
b1 *
b1 %
b1 @
1+
1#
#850
0#
#855
b101 0
1.
b1001 $
b1001 A
1,
b1111100101011110 &
b1111100101011110 ?
b1110 *
b0 %
b0 @
0+
1#
#860
0#
#865
0.
b1000 $
b1000 A
0,
b1111100101011011 &
b1111100101011011 ?
b1011 *
1#
#870
0#
#875
b1111100101011000 &
b1111100101011000 ?
b1000 *
1#
#880
0#
#885
b1111100101010101 &
b1111100101010101 ?
b101 *
1#
#890
0#
#895
b1111100101010010 &
b1111100101010010 ?
b10 *
b1 %
b1 @
1+
1#
#900
0#
#905
b10 0
11
1.
b1001 $
b1001 A
1,
b1111100100101111 &
b1111100100101111 ?
b1111 *
b10 %
b10 @
0+
1#
#910
0#
#915
0.
b1000 $
b1000 A
0,
b1111100100101100 &
b1111100100101100 ?
b1100 *
1#
#920
0#
#925
b1111100100101001 &
b1111100100101001 ?
b1001 *
1#
#930
0#
#935
b1111100100100110 &
b1111100100100110 ?
b110 *
1#
#940
0#
#945
b1111100100100011 &
b1111100100100011 ?
b11 *
1#
#950
0#
#955
b1111100100100000 &
b1111100100100000 ?
b0 *
b11 %
b11 @
1+
1#
#960
0#
#965
b110 6
14
12
b1111 0
01
1.
b1011 $
b1011 A
1,
b1111011011111101 &
b1111011011111101 ?
b1101 *
b0 %
b0 @
0+
1#
#970
0#
#975
0.
b1010 $
b1010 A
0,
b1111011011111010 &
b1111011011111010 ?
b1010 *
1#
#980
0#
#985
b1111011011110111 &
b1111011011110111 ?
b111 *
1#
#990
0#
#995
b1111011011110100 &
b1111011011110100 ?
b100 *
1#
#1000
0#
#1005
b1111011011110001 &
b1111011011110001 ?
b1 *
b1 %
b1 @
1+
1#
#1010
0#
#1015
04
02
b1100 0
1.
b1001 $
b1001 A
1,
b1111011011001110 &
b1111011011001110 ?
b1110 *
b0 %
b0 @
0+
1#
#1020
0#
#1025
0.
b1000 $
b1000 A
0,
b1111011011001011 &
b1111011011001011 ?
b1011 *
1#
#1030
0#
#1035
b1111011011001000 &
b1111011011001000 ?
b1000 *
1#
#1040
0#
#1045
b1111011011000101 &
b1111011011000101 ?
b101 *
1#
#1050
0#
#1055
b1111011011000010 &
b1111011011000010 ?
b10 *
b1 %
b1 @
1+
1#
#1060
0#
#1065
b1001 0
1.
b1001 $
b1001 A
1,
b1111011010011111 &
b1111011010011111 ?
b1111 *
b0 %
b0 @
0+
1#
#1070
0#
#1075
0.
b1000 $
b1000 A
0,
b1111011010011100 &
b1111011010011100 ?
b1100 *
1#
#1080
0#
#1085
b1111011010011001 &
b1111011010011001 ?
b1001 *
1#
#1090
0#
#1095
b1111011010010110 &
b1111011010010110 ?
b110 *
1#
#1100
0#
#1105
b1111011010010011 &
b1111011010010011 ?
b11 *
1#
#1110
0#
#1115
b1111011010010000 &
b1111011010010000 ?
b0 *
b1 %
b1 @
1+
1#
#1120
0#
#1125
b110 0
1.
b1001 $
b1001 A
1,
b1111011001101101 &
b1111011001101101 ?
b1101 *
b0 %
b0 @
0+
1#
#1130
0#
#1135
0.
b1000 $
b1000 A
0,
b1111011001101010 &
b1111011001101010 ?
b1010 *
1#
#1140
0#
#1145
b1111011001100111 &
b1111011001100111 ?
b111 *
1#
#1150
0#
#1155
b1111011001100100 &
b1111011001100100 ?
b100 *
1#
#1160
0#
#1165
b1111011001100001 &
b1111011001100001 ?
b1 *
b1 %
b1 @
1+
1#
#1170
0#
#1175
b11 0
1.
b1001 $
b1001 A
1,
b1111011000111110 &
b1111011000111110 ?
b1110 *
b0 %
b0 @
0+
1#
#1180
0#
#1185
0.
b1000 $
b1000 A
0,
b1111011000111011 &
b1111011000111011 ?
b1011 *
1#
#1190
0#
#1195
b1111011000111000 &
b1111011000111000 ?
b1000 *
1#
#1200
0#
#1205
b1111011000110101 &
b1111011000110101 ?
b101 *
1#
#1210
0#
#1215
b1111011000110010 &
b1111011000110010 ?
b10 *
b1 %
b1 @
1+
1#
#1220
0#
#1225
b0 0
11
1.
b1001 $
b1001 A
1,
b1111011000001111 &
b1111011000001111 ?
b1111 *
b10 %
b10 @
0+
1#
#1230
0#
#1235
0.
b1000 $
b1000 A
0,
b1111011000001100 &
b1111011000001100 ?
b1100 *
1#
#1240
0#
#1245
b1111011000001001 &
b1111011000001001 ?
b1001 *
1#
#1250
0#
#1255
b1111011000000110 &
b1111011000000110 ?
b110 *
1#
#1260
0#
#1265
b1111011000000011 &
b1111011000000011 ?
b11 *
1#
#1270
0#
#1275
b1111011000000000 &
b1111011000000000 ?
b0 *
b11 %
b11 @
1+
1#
#1280
0#
#1285
b11 6
14
12
b1101 0
01
1.
b1011 $
b1011 A
1,
b1111001111011101 &
b1111001111011101 ?
b1101 *
b0 %
b0 @
0+
1#
#1290
0#
#1295
0.
b1010 $
b1010 A
0,
b1111001111011010 &
b1111001111011010 ?
b1010 *
1#
#1300
0#
#1305
b1111001111010111 &
b1111001111010111 ?
b111 *
1#
#1310
0#
#1315
b1111001111010100 &
b1111001111010100 ?
b100 *
1#
#1320
0#
#1325
b1111001111010001 &
b1111001111010001 ?
b1 *
b1 %
b1 @
1+
1#
#1330
0#
#1335
04
02
b1010 0
1.
b1001 $
b1001 A
1,
b1111001110101110 &
b1111001110101110 ?
b1110 *
b0 %
b0 @
0+
1#
#1340
0#
#1345
0.
b1000 $
b1000 A
0,
b1111001110101011 &
b1111001110101011 ?
b1011 *
1#
#1350
0#
#1355
b1111001110101000 &
b1111001110101000 ?
b1000 *
1#
#1360
0#
#1365
b1111001110100101 &
b1111001110100101 ?
b101 *
1#
#1370
0#
#1375
b1111001110100010 &
b1111001110100010 ?
b10 *
b1 %
b1 @
1+
1#
#1380
0#
#1385
b111 0
1.
b1001 $
b1001 A
1,
b1111001101111111 &
b1111001101111111 ?
b1111 *
b0 %
b0 @
0+
1#
#1390
0#
#1395
0.
b1000 $
b1000 A
0,
b1111001101111100 &
b1111001101111100 ?
b1100 *
1#
#1400
0#
#1405
b1111001101111001 &
b1111001101111001 ?
b1001 *
1#
#1410
0#
#1415
b1111001101110110 &
b1111001101110110 ?
b110 *
1#
#1420
0#
#1425
b1111001101110011 &
b1111001101110011 ?
b11 *
1#
#1430
0#
#1435
b1111001101110000 &
b1111001101110000 ?
b0 *
b1 %
b1 @
1+
1#
#1440
0#
#1445
b100 0
1.
b1001 $
b1001 A
1,
b1111001101001101 &
b1111001101001101 ?
b1101 *
b0 %
b0 @
0+
1#
#1450
0#
#1455
0.
b1000 $
b1000 A
0,
b1111001101001010 &
b1111001101001010 ?
b1010 *
1#
#1460
0#
#1465
b1111001101000111 &
b1111001101000111 ?
b111 *
1#
#1470
0#
#1475
b1111001101000100 &
b1111001101000100 ?
b100 *
1#
#1480
0#
#1485
b1111001101000001 &
b1111001101000001 ?
b1 *
b1 %
b1 @
1+
1#
#1490
0#
#1495
b1 0
11
1.
b1001 $
b1001 A
1,
b1111001100011110 &
b1111001100011110 ?
b1110 *
b10 %
b10 @
0+
1#
#1500
0#
#1505
0.
b1000 $
b1000 A
0,
b1111001100011011 &
b1111001100011011 ?
b1011 *
1#
#1510
0#
#1515
b1111001100011000 &
b1111001100011000 ?
b1000 *
1#
#1520
0#
#1525
b1111001100010101 &
b1111001100010101 ?
b101 *
1#
#1530
0#
#1535
b1111001100010010 &
b1111001100010010 ?
b10 *
b11 %
b11 @
1+
1#
#1540
0#
#1545
b0 6
17
14
12
b1110 0
01
1.
b1011 $
b1011 A
1,
b1111000011101111 &
b1111000011101111 ?
b1111 *
b100 %
b100 @
0+
1#
#1550
0#
#1555
0.
b1010 $
b1010 A
0,
b1111000011101100 &
b1111000011101100 ?
b1100 *
1#
#1560
0#
#1565
b1111000011101001 &
b1111000011101001 ?
b1001 *
1#
#1570
0#
#1575
b1111000011100110 &
b1111000011100110 ?
b110 *
1#
#1580
0#
#1585
b1111000011100011 &
b1111000011100011 ?
b11 *
1#
#1590
0#
#1595
b1111000011100000 &
b1111000011100000 ?
b0 *
b101 %
b101 @
1+
1#
#1600
0#
#1605
04
02
b1011 0
1.
b1001 $
b1001 A
1,
b1111000010111101 &
b1111000010111101 ?
b1101 *
b100 %
b100 @
0+
1#
#1610
0#
#1615
0.
b1000 $
b1000 A
0,
b1111000010111010 &
b1111000010111010 ?
b1010 *
1#
#1620
0#
#1625
b1111000010110111 &
b1111000010110111 ?
b111 *
1#
#1630
0#
#1635
b1111000010110100 &
b1111000010110100 ?
b100 *
1#
#1640
0#
#1645
b1111000010110001 &
b1111000010110001 ?
b1 *
b101 %
b101 @
1+
1#
#1650
0#
#1655
b1000 0
1.
b1001 $
b1001 A
1,
b1111000010001110 &
b1111000010001110 ?
b1110 *
b100 %
b100 @
0+
1#
#1660
0#
#1665
0.
b1000 $
b1000 A
0,
b1111000010001011 &
b1111000010001011 ?
b1011 *
1#
#1670
0#
#1675
b1111000010001000 &
b1111000010001000 ?
b1000 *
1#
#1680
0#
#1685
b1111000010000101 &
b1111000010000101 ?
b101 *
1#
#1690
0#
#1695
b1111000010000010 &
b1111000010000010 ?
b10 *
b101 %
b101 @
1+
1#
#1700
0#
#1705
b101 0
1.
b1001 $
b1001 A
1,
b1111000001011111 &
b1111000001011111 ?
b1111 *
b100 %
b100 @
0+
1#
#1710
0#
#1715
0.
b1000 $
b1000 A
0,
b1111000001011100 &
b1111000001011100 ?
b1100 *
1#
#1720
0#
#1725
b1111000001011001 &
b1111000001011001 ?
b1001 *
1#
#1730
0#
#1735
b1111000001010110 &
b1111000001010110 ?
b110 *
1#
#1740
0#
#1745
b1111000001010011 &
b1111000001010011 ?
b11 *
1#
#1750
0#
#1755
b1111000001010000 &
b1111000001010000 ?
b0 *
b101 %
b101 @
1+
1#
#1760
0#
#1765
b10 0
11
1.
b1001 $
b1001 A
1,
b1111000000101101 &
b1111000000101101 ?
b1101 *
b110 %
b110 @
0+
1#
#1770
0#
#1775
0.
b1000 $
b1000 A
0,
b1111000000101010 &
b1111000000101010 ?
b1010 *
1#
#1780
0#
#1785
b1111000000100111 &
b1111000000100111 ?
b111 *
1#
#1790
0#
#1795
b1111000000100100 &
b1111000000100100 ?
b100 *
1#
#1800
0#
#1805
b1111000000100001 &
b1111000000100001 ?
b1 *
b111 %
b111 @
1+
1#
#1810
0#
#1815
0>
b1100 <
1:
18
b1101 6
07
14
12
b1111 0
01
1.
b111 $
b111 A
1,
b1100110111111110 &
b1100110111111110 ?
b1110 *
b0 %
b0 @
0+
1#
#1820
0#
#1825
0.
b110 $
b110 A
0,
b1100110111111011 &
b1100110111111011 ?
b1011 *
1#
#1830
0#
#1835
b1100110111111000 &
b1100110111111000 ?
b1000 *
1#
#1840
0#
#1845
b1100110111110101 &
b1100110111110101 ?
b101 *
1#
#1850
0#
#1855
b1100110111110010 &
b1100110111110010 ?
b10 *
b1 %
b1 @
1+
1#
#1860
0#
#1865
04
02
b1100 0
1.
b101 $
b101 A
1,
b1100110111001111 &
b1100110111001111 ?
b1111 *
b0 %
b0 @
0+
1#
#1870
0#
#1875
0.
b100 $
b100 A
0,
b1100110111001100 &
b1100110111001100 ?
b1100 *
1#
#1880
0#
#1885
b1100110111001001 &
b1100110111001001 ?
b1001 *
1#
#1890
0#
#1895
b1100110111000110 &
b1100110111000110 ?
b110 *
1#
#1900
0#
#1905
b1100110111000011 &
b1100110111000011 ?
b11 *
1#
#1910
0#
#1915
b1100110111000000 &
b1100110111000000 ?
b0 *
b1 %
b1 @
1+
1#
#1920
0#
#1925
b1001 0
1.
b101 $
b101 A
1,
b1100110110011101 &
b1100110110011101 ?
b1101 *
b0 %
b0 @
0+
1#
#1930
0#
#1935
0.
b100 $
b100 A
0,
b1100110110011010 &
b1100110110011010 ?
b1010 *
1#
#1940
0#
#1945
b1100110110010111 &
b1100110110010111 ?
b111 *
1#
#1950
0#
#1955
b1100110110010100 &
b1100110110010100 ?
b100 *
1#
#1960
0#
#1965
b1100110110010001 &
b1100110110010001 ?
b1 *
b1 %
b1 @
1+
1#
#1970
0#
#1975
b110 0
1.
b101 $
b101 A
1,
b1100110101101110 &
b1100110101101110 ?
b1110 *
b0 %
b0 @
0+
1#
#1980
0#
#1985
0.
b100 $
b100 A
0,
b1100110101101011 &
b1100110101101011 ?
b1011 *
1#
#1990
0#
#1995
b1100110101101000 &
b1100110101101000 ?
b1000 *
1#
#2000
0#
#2005
b1100110101100101 &
b1100110101100101 ?
b101 *
1#
#2010
0#
#2015
b1100110101100010 &
b1100110101100010 ?
b10 *
b1 %
b1 @
1+
1#
#2020
0#
#2025
b11 0
1.
b101 $
b101 A
1,
b1100110100111111 &
b1100110100111111 ?
b1111 *
b0 %
b0 @
0+
1#
#2030
0#
#2035
0.
b100 $
b100 A
0,
b1100110100111100 &
b1100110100111100 ?
b1100 *
1#
#2040
0#
#2045
b1100110100111001 &
b1100110100111001 ?
b1001 *
1#
#2050
0#
#2055
b1100110100110110 &
b1100110100110110 ?
b110 *
1#
#2060
0#
#2065
b1100110100110011 &
b1100110100110011 ?
b11 *
1#
#2070
0#
#2075
b1100110100110000 &
b1100110100110000 ?
b0 *
b1 %
b1 @
1+
1#
#2080
0#
#2085
b0 0
11
1.
b101 $
b101 A
1,
b1100110100001101 &
b1100110100001101 ?
b1101 *
b10 %
b10 @
0+
1#
#2090
0#
#2095
0.
b100 $
b100 A
0,
b1100110100001010 &
b1100110100001010 ?
b1010 *
1#
#2100
0#
#2105
b1100110100000111 &
b1100110100000111 ?
b111 *
1#
#2110
0#
#2115
b1100110100000100 &
b1100110100000100 ?
b100 *
1#
#2120
0#
#2125
b1100110100000001 &
b1100110100000001 ?
b1 *
b11 %
b11 @
1+
1#
#2130
0#
#2135
0:
08
b1010 6
14
12
b1101 0
01
1.
b11 $
b11 A
1,
b1100101011011110 &
b1100101011011110 ?
b1110 *
b0 %
b0 @
0+
1#
#2140
0#
#2145
0.
b10 $
b10 A
0,
b1100101011011011 &
b1100101011011011 ?
b1011 *
1#
#2150
0#
#2155
b1100101011011000 &
b1100101011011000 ?
b1000 *
1#
#2160
0#
#2165
b1100101011010101 &
b1100101011010101 ?
b101 *
1#
#2170
0#
#2175
b1100101011010010 &
b1100101011010010 ?
b10 *
b1 %
b1 @
1+
1#
#2180
0#
#2185
04
02
b1010 0
1.
b1 $
b1 A
1,
b1100101010101111 &
b1100101010101111 ?
b1111 *
b0 %
b0 @
0+
1#
#2190
0#
#2195
0.
b0 $
b0 A
0,
b1100101010101100 &
b1100101010101100 ?
b1100 *
1#
#2200
0#
#2205
b1100101010101001 &
b1100101010101001 ?
b1001 *
1#
#2210
0#
#2215
b1100101010100110 &
b1100101010100110 ?
b110 *
1#
#2220
0#
#2225
b1100101010100011 &
b1100101010100011 ?
b11 *
1#
#2230
0#
#2235
b1100101010100000 &
b1100101010100000 ?
b0 *
b1 %
b1 @
1+
1#
#2240
0#
#2245
b111 0
1.
b1 $
b1 A
1,
b1100101001111101 &
b1100101001111101 ?
b1101 *
b0 %
b0 @
0+
1#
#2250
0#
#2255
0.
b0 $
b0 A
0,
b1100101001111010 &
b1100101001111010 ?
b1010 *
1#
#2260
0#
#2265
b1100101001110111 &
b1100101001110111 ?
b111 *
1#
#2270
0#
#2275
b1100101001110100 &
b1100101001110100 ?
b100 *
1#
#2280
0#
#2285
b1100101001110001 &
b1100101001110001 ?
b1 *
b1 %
b1 @
1+
1#
#2290
0#
#2295
b100 0
1.
b1 $
b1 A
1,
b1100101001001110 &
b1100101001001110 ?
b1110 *
b0 %
b0 @
0+
1#
#2300
0#
#2305
0.
b0 $
b0 A
0,
b1100101001001011 &
b1100101001001011 ?
b1011 *
1#
#2310
0#
#2315
b1100101001001000 &
b1100101001001000 ?
b1000 *
1#
#2320
0#
#2325
b1100101001000101 &
b1100101001000101 ?
b101 *
1#
#2330
0#
#2335
b1100101001000010 &
b1100101001000010 ?
b10 *
b1 %
b1 @
1+
1#
#2340
0#
#2345
b1 0
11
1.
b1 $
b1 A
1,
b1100101000011111 &
b1100101000011111 ?
b1111 *
b10 %
b10 @
0+
1#
#2350
0#
#2355
0.
b0 $
b0 A
0,
b1100101000011100 &
b1100101000011100 ?
b1100 *
1#
#2360
0#
#2365
b1100101000011001 &
b1100101000011001 ?
b1001 *
1#
#2370
0#
#2375
b1100101000010110 &
b1100101000010110 ?
b110 *
1#
#2380
0#
#2385
b1100101000010011 &
b1100101000010011 ?
b11 *
1#
#2390
0#
#2395
b1100101000010000 &
b1100101000010000 ?
b0 *
b11 %
b11 @
1+
1#
#2400
0#
#2405
b111 6
14
12
b1110 0
01
1.
b11 $
b11 A
1,
b1100011111101101 &
b1100011111101101 ?
b1101 *
b0 %
b0 @
0+
1#
#2410
0#
#2415
0.
b10 $
b10 A
0,
b1100011111101010 &
b1100011111101010 ?
b1010 *
1#
#2420
0#
#2425
b1100011111100111 &
b1100011111100111 ?
b111 *
1#
#2430
0#
#2435
b1100011111100100 &
b1100011111100100 ?
b100 *
1#
#2440
0#
#2445
b1100011111100001 &
b1100011111100001 ?
b1 *
b1 %
b1 @
1+
1#
#2450
0#
#2455
04
02
b1011 0
1.
b1 $
b1 A
1,
b1100011110111110 &
b1100011110111110 ?
b1110 *
b0 %
b0 @
0+
1#
#2460
0#
#2465
0.
b0 $
b0 A
0,
b1100011110111011 &
b1100011110111011 ?
b1011 *
1#
#2470
0#
#2475
b1100011110111000 &
b1100011110111000 ?
b1000 *
1#
#2480
0#
#2485
b1100011110110101 &
b1100011110110101 ?
b101 *
1#
#2490
0#
#2495
b1100011110110010 &
b1100011110110010 ?
b10 *
b1 %
b1 @
1+
1#
#2500
0#
#2505
b1000 0
1.
b1 $
b1 A
1,
b1100011110001111 &
b1100011110001111 ?
b1111 *
b0 %
b0 @
0+
1#
#2510
0#
#2515
0.
b0 $
b0 A
0,
b1100011110001100 &
b1100011110001100 ?
b1100 *
1#
#2520
0#
#2525
b1100011110001001 &
b1100011110001001 ?
b1001 *
1#
#2530
0#
#2535
b1100011110000110 &
b1100011110000110 ?
b110 *
1#
#2540
0#
#2545
b1100011110000011 &
b1100011110000011 ?
b11 *
1#
#2550
0#
#2555
b1100011110000000 &
b1100011110000000 ?
b0 *
b1 %
b1 @
1+
1#
#2560
0#
#2565
b101 0
1.
b1 $
b1 A
1,
b1100011101011101 &
b1100011101011101 ?
b1101 *
b0 %
b0 @
0+
1#
#2570
0#
#2575
0.
b0 $
b0 A
0,
b1100011101011010 &
b1100011101011010 ?
b1010 *
1#
#2580
0#
#2585
b1100011101010111 &
b1100011101010111 ?
b111 *
1#
#2590
0#
#2595
b1100011101010100 &
b1100011101010100 ?
b100 *
1#
#2600
0#
#2605
b1100011101010001 &
b1100011101010001 ?
b1 *
b1 %
b1 @
1+
1#
#2610
0#
#2615
b10 0
11
1.
b1 $
b1 A
1,
b1100011100101110 &
b1100011100101110 ?
b1110 *
b10 %
b10 @
0+
1#
#2620
0#
#2625
0.
b0 $
b0 A
0,
b1100011100101011 &
b1100011100101011 ?
b1011 *
1#
#2630
0#
#2635
b1100011100101000 &
b1100011100101000 ?
b1000 *
1#
#2640
0#
#2645
b1100011100100101 &
b1100011100100101 ?
b101 *
1#
#2650
0#
#2655
b1100011100100010 &
b1100011100100010 ?
b10 *
b11 %
b11 @
1+
1#
#2660
0#
#2665
b100 6
14
12
b1111 0
01
1.
b11 $
b11 A
1,
b1100010011111111 &
b1100010011111111 ?
b1111 *
b0 %
b0 @
0+
1#
#2670
0#
#2675
0.
b10 $
b10 A
0,
b1100010011111100 &
b1100010011111100 ?
b1100 *
1#
#2680
0#
#2685
b1100010011111001 &
b1100010011111001 ?
b1001 *
1#
#2690
0#
